PCBNEW-LibModule-V1  Mittwoch, 17. Dezember 2014 18:12:14
# encoding utf-8
Units mm
$INDEX
1PIN_SMD_65x6
78Lxx
AN7148
Arduino_Micro
Arduino_Mini_Pro
CPOL2.5_4mm
CPOL2.5_5mm
CPOL2.5_6mm
CPOL2.5_7mm
CPOL3.5_8mm
CPOL5.0_12mm
C_0201_test
C_SMD_FK-D
Conn2 WAGO 250-202 3.5mm
Conn2 WAGO 250-502 5mm
Conn2 WAGO 2716-102 10mm
Conn2_Phoenix_MKDS_5
Conn4 WAGO 250-204 3.5mm
Conn4 WAGO 250-504 5mm
Conn8 WAGO250-208 3.5mm
Conn_10 RIA 5,0
Conn_2_PTR-AK350_RM5mm
DB9FC_EU
DB9MC_EU
DPAK2
DPAK2_IRF1404
DRILL_HOLE_4mm
HEATSINK_TO220_FI343
IRLL014N_SOT223
Inductance_SMD_Fastron_1008F-100K-01_2.8x2.9
Inductor_09HCP_Fastron
Jack_Chinch_Standing
LED_SEOUL_RGB
LM317_SOT-223
MOC3021
MOC3021_SMD
PIS4728_Inductance
POT_ALPSRK09
POT_ALPSRK09_Vert
Poti_4mm
PrecisionTrimmer
RELAY_HJR-3FF
Relay_Finder_16A
Relay_G5V-1
SMD_PushButton
SO18E
SO4_Bridge
SOP-18
SOT223_MCP1703
TO220GDS_IRF1404
TO220_VERT_1404
led_cree_mc-e
slider_stolen
switch_ALPS
$EndINDEX
$MODULE 1PIN_SMD_65x6
Po 0 0 0 15 51ED0422 00000000 ~~
Li 1PIN_SMD_65x6
Cd module 1 pin (ou trou mecanique de percage)
Kw DEV
Sc 0
AR 1pin
Op 0 0 0
T0 0 -3.50012 1.016 1.016 0 0.254 N V 21 N "1PIN_SMD_Zone_65x6"
T1 0.24892 3.74904 1.016 1.016 0 0.254 N V 21 N "P***"
$PAD
Sh "1" R 65 5 0 0 0
Dr 0 0 0
At SMD N 00A88000
Ne 0 ""
Po 0 0
$EndPAD
$EndMODULE 1PIN_SMD_65x6
$MODULE 78Lxx
Po 0 0 0 15 506DA242 00000000 ~~
Li 78Lxx
Cd Transistor TO92 brochage type BC237
Kw TR TO92
Sc 0
AR /506D640D
Op 0 0 0
T0 -1.27 3.81 1.016 1.016 0 0.2032 N V 21 N "U3"
T1 -1.27 -5.08 1.016 1.016 0 0.2032 N V 21 N "78L05"
DS -1.27 2.54 2.54 -1.27 0.3048 21
DS 2.54 -1.27 2.54 -2.54 0.3048 21
DS 2.54 -2.54 1.27 -3.81 0.3048 21
DS 1.27 -3.81 -1.27 -3.81 0.3048 21
DS -1.27 -3.81 -3.81 -1.27 0.3048 21
DS -3.81 -1.27 -3.81 1.27 0.3048 21
DS -3.81 1.27 -2.54 2.54 0.3048 21
DS -2.54 2.54 -1.27 2.54 0.3048 21
$PAD
Sh "VI" R 1.397 1.397 0 0 0
Dr 0.8128 0 0
At STD N 00E0FFFF
Ne 0 ""
Po 1.27 -1.27
$EndPAD
$PAD
Sh "GND" C 1.397 1.397 0 0 0
Dr 0.8128 0 0
At STD N 00E0FFFF
Ne 0 ""
Po -1.27 -1.27
$EndPAD
$PAD
Sh "VO" C 1.397 1.397 0 0 0
Dr 0.8128 0 0
At STD N 00E0FFFF
Ne 0 ""
Po -1.27 1.27
$EndPAD
$SHAPE3D
Na "discret/to98.wrl"
Sc 1 1 1
Of 0 0 0
Ro 0 0 0
$EndSHAPE3D
$EndMODULE 78Lxx
$MODULE AN7148
Po 0 0 0 15 4FE4B728 00000000 ~~
Li AN7148
Sc 0
AR 
Op 0 0 0
T0 7.62 -17.78 1.524 1.524 0 0.3048 N V 21 N "AN7148"
T1 5.08 -20.32 1.524 1.524 0 0.3048 N V 21 N "VAL**"
DS -2.54 -17.78 -2.54 15.24 0.381 21
DS -2.54 15.24 2.54 15.24 0.381 21
DS 2.54 15.24 2.54 -17.78 0.381 21
DS 2.54 -17.78 -2.54 -17.78 0.381 21
$PAD
Sh "1" C 1.524 1.524 0 0 0
Dr 0.8128 0 0
At STD N 00E0FFFF
Ne 0 ""
Po 0 -15.24
$EndPAD
$PAD
Sh "2" C 1.524 1.524 0 0 0
Dr 0.8128 0 0
At STD N 00E0FFFF
Ne 0 ""
Po 0 -12.7
$EndPAD
$PAD
Sh "3" C 1.524 1.524 0 0 0
Dr 0.8128 0 0
At STD N 00E0FFFF
Ne 0 ""
Po 0 -10.16
$EndPAD
$PAD
Sh "4" C 1.524 1.524 0 0 0
Dr 0.8128 0 0
At STD N 00E0FFFF
Ne 0 ""
Po 0 -7.62
$EndPAD
$PAD
Sh "5" C 1.524 1.524 0 0 0
Dr 0.8128 0 0
At STD N 00E0FFFF
Ne 0 ""
Po 0 -5.08
$EndPAD
$PAD
Sh "6" C 1.524 1.524 0 0 0
Dr 0.8128 0 0
At STD N 00E0FFFF
Ne 0 ""
Po 0 -2.54
$EndPAD
$PAD
Sh "7" C 1.524 1.524 0 0 0
Dr 0.8128 0 0
At STD N 00E0FFFF
Ne 0 ""
Po 0 0
$EndPAD
$PAD
Sh "8" C 1.524 1.524 0 0 0
Dr 0.8128 0 0
At STD N 00E0FFFF
Ne 0 ""
Po 0 2.54
$EndPAD
$PAD
Sh "9" C 1.524 1.524 0 0 0
Dr 0.8128 0 0
At STD N 00E0FFFF
Ne 0 ""
Po 0 5.08
$EndPAD
$PAD
Sh "10" C 1.524 1.524 0 0 0
Dr 0.8128 0 0
At STD N 00E0FFFF
Ne 0 ""
Po 0 7.62
$EndPAD
$PAD
Sh "11" C 1.524 1.524 0 0 0
Dr 0.8128 0 0
At STD N 00E0FFFF
Ne 0 ""
Po 0 10.16
$EndPAD
$PAD
Sh "12" C 1.524 1.524 0 0 0
Dr 0.8128 0 0
At STD N 00E0FFFF
Ne 0 ""
Po 0 12.7
$EndPAD
$EndMODULE AN7148
$MODULE Arduino_Micro
Po 0 0 0 15 519F91E3 00000000 ~~
Li Arduino_Micro
Sc 0
AR 
Op 0 0 0
T0 0 -11.43 1 1 0 0.15 N V 21 N "Arduino Micro"
T1 0 10.6 1 1 0 0.15 N V 21 N "VAL**"
DS -3.81 -3.81 0 -7.62 0.15 21
DS 0 -7.62 3.81 -3.81 0.15 21
DS 3.81 -3.81 0 0 0.15 21
DS 0 0 -3.81 -3.81 0.15 21
DS 5.08 -24.13 5.08 -25.4 0.15 21
DS 5.08 -25.4 -5.08 -25.4 0.15 21
DS -5.08 -25.4 -5.08 -17.78 0.15 21
DS -5.08 -17.78 -3.81 -16.51 0.15 21
DS -3.81 -16.51 3.81 -16.51 0.15 21
DS 3.81 -16.51 5.08 -17.78 0.15 21
DS 5.08 -17.78 5.08 -24.13 0.15 21
DC 7.8 -22.8 7.3 -22.7 0.15 21
DC -7.8 -22.8 -7.3 -22.8 0.15 21
DC 7.8 22.8 8.3 22.8 0.15 21
DC -7.8 22.8 -7.3 22.8 0.15 21
DS -9 24 9 24 0.15 21
DS 9 24 9 -24 0.15 21
DS 9 -24 -9 -24 0.15 21
DS -9 -24 -9 24 0.15 21
$PAD
Sh "17" C 1.5 1.5 0 0 0
Dr 0.8 0 0
At STD N 00E0FFFF
Ne 0 ""
Po -7.62 20.32
$EndPAD
$PAD
Sh "16" C 1.5 1.5 0 0 0
Dr 0.8 0 0
At STD N 00E0FFFF
Ne 0 ""
Po -7.62 17.78
$EndPAD
$PAD
Sh "15" C 1.5 1.5 0 0 0
Dr 0.8 0 0
At STD N 00E0FFFF
Ne 0 ""
Po -7.62 15.24
$EndPAD
$PAD
Sh "14" C 1.5 1.5 0 0 0
Dr 0.8 0 0
At STD N 00E0FFFF
Ne 0 ""
Po -7.62 12.7
$EndPAD
$PAD
Sh "13" C 1.5 1.5 0 0 0
Dr 0.8 0 0
At STD N 00E0FFFF
Ne 0 ""
Po -7.62 10.16
$EndPAD
$PAD
Sh "12" C 1.5 1.5 0 0 0
Dr 0.8 0 0
At STD N 00E0FFFF
Ne 0 ""
Po -7.62 7.62
$EndPAD
$PAD
Sh "11" C 1.5 1.5 0 0 0
Dr 0.8 0 0
At STD N 00E0FFFF
Ne 0 ""
Po -7.62 5.08
$EndPAD
$PAD
Sh "10" C 1.5 1.5 0 0 0
Dr 0.8 0 0
At STD N 00E0FFFF
Ne 0 ""
Po -7.62 2.54
$EndPAD
$PAD
Sh "9" C 1.5 1.5 0 0 0
Dr 0.8 0 0
At STD N 00E0FFFF
Ne 0 ""
Po -7.62 0
$EndPAD
$PAD
Sh "8" C 1.5 1.5 0 0 0
Dr 0.8 0 0
At STD N 00E0FFFF
Ne 0 ""
Po -7.62 -2.54
$EndPAD
$PAD
Sh "7" C 1.5 1.5 0 0 0
Dr 0.8 0 0
At STD N 00E0FFFF
Ne 0 ""
Po -7.62 -5.08
$EndPAD
$PAD
Sh "6" C 1.5 1.5 0 0 0
Dr 0.8 0 0
At STD N 00E0FFFF
Ne 0 ""
Po -7.62 -7.62
$EndPAD
$PAD
Sh "5" C 1.5 1.5 0 0 0
Dr 0.8 0 0
At STD N 00E0FFFF
Ne 0 ""
Po -7.62 -10.16
$EndPAD
$PAD
Sh "4" C 1.5 1.5 0 0 0
Dr 0.8 0 0
At STD N 00E0FFFF
Ne 0 ""
Po -7.62 -12.7
$EndPAD
$PAD
Sh "3" C 1.5 1.5 0 0 0
Dr 0.8 0 0
At STD N 00E0FFFF
Ne 0 ""
Po -7.62 -15.24
$EndPAD
$PAD
Sh "2" C 1.5 1.5 0 0 0
Dr 0.8 0 0
At STD N 00E0FFFF
Ne 0 ""
Po -7.62 -17.78
$EndPAD
$PAD
Sh "1" R 1.5 1.5 0 0 0
Dr 0.8 0 0
At STD N 00E0FFFF
Ne 0 ""
Po -7.62 -20.32
$EndPAD
$PAD
Sh "18" C 1.5 1.5 0 0 0
Dr 0.8 0 0
At STD N 00E0FFFF
Ne 0 ""
Po 7.62 20.32
$EndPAD
$PAD
Sh "19" C 1.5 1.5 0 0 0
Dr 0.8 0 0
At STD N 00E0FFFF
Ne 0 ""
Po 7.62 17.78
$EndPAD
$PAD
Sh "20" C 1.5 1.5 0 0 0
Dr 0.8 0 0
At STD N 00E0FFFF
Ne 0 ""
Po 7.62 15.24
$EndPAD
$PAD
Sh "21" C 1.5 1.5 0 0 0
Dr 0.8 0 0
At STD N 00E0FFFF
Ne 0 ""
Po 7.62 12.7
$EndPAD
$PAD
Sh "22" C 1.5 1.5 0 0 0
Dr 0.8 0 0
At STD N 00E0FFFF
Ne 0 ""
Po 7.62 10.16
$EndPAD
$PAD
Sh "23" C 1.5 1.5 0 0 0
Dr 0.8 0 0
At STD N 00E0FFFF
Ne 0 ""
Po 7.62 7.62
$EndPAD
$PAD
Sh "24" C 1.5 1.5 0 0 0
Dr 0.8 0 0
At STD N 00E0FFFF
Ne 0 ""
Po 7.62 5.08
$EndPAD
$PAD
Sh "25" C 1.5 1.5 0 0 0
Dr 0.8 0 0
At STD N 00E0FFFF
Ne 0 ""
Po 7.62 2.54
$EndPAD
$PAD
Sh "26" C 1.5 1.5 0 0 0
Dr 0.8 0 0
At STD N 00E0FFFF
Ne 0 ""
Po 7.62 0
$EndPAD
$PAD
Sh "27" C 1.5 1.5 0 0 0
Dr 0.8 0 0
At STD N 00E0FFFF
Ne 0 ""
Po 7.62 -2.54
$EndPAD
$PAD
Sh "28" C 1.5 1.5 0 0 0
Dr 0.8 0 0
At STD N 00E0FFFF
Ne 0 ""
Po 7.62 -5.08
$EndPAD
$PAD
Sh "29" C 1.5 1.5 0 0 0
Dr 0.8 0 0
At STD N 00E0FFFF
Ne 0 ""
Po 7.62 -7.62
$EndPAD
$PAD
Sh "30" C 1.5 1.5 0 0 0
Dr 0.8 0 0
At STD N 00E0FFFF
Ne 0 ""
Po 7.62 -10.16
$EndPAD
$PAD
Sh "31" C 1.5 1.5 0 0 0
Dr 0.8 0 0
At STD N 00E0FFFF
Ne 0 ""
Po 7.62 -12.7
$EndPAD
$PAD
Sh "32" C 1.5 1.5 0 0 0
Dr 0.8 0 0
At STD N 00E0FFFF
Ne 0 ""
Po 7.62 -15.24
$EndPAD
$PAD
Sh "33" C 1.5 1.5 0 0 0
Dr 0.8 0 0
At STD N 00E0FFFF
Ne 0 ""
Po 7.62 -17.78
$EndPAD
$PAD
Sh "34" C 1.5 1.5 0 0 0
Dr 0.8 0 0
At STD N 00E0FFFF
Ne 0 ""
Po 7.62 -20.32
$EndPAD
$EndMODULE Arduino_Micro
$MODULE Arduino_Mini_Pro
Po 0 0 0 15 51E95199 00000000 ~~
Li Arduino_Mini_Pro
Sc 0
AR /51DFD66A
Op 0 0 0
T0 0 -19.05 1 1 0 0.15 N V 21 N "SHIELD1"
T1 0 10.6 1 1 0 0.15 N V 21 N "ARDUINO_PRO_MINI_SHIELD"
DC 0 10.16 1.27 11.43 0.15 21
DS -2.54 8.89 -2.54 12.7 0.15 21
DS -2.54 12.7 2.54 12.7 0.15 21
DS 2.54 12.7 2.54 7.62 0.15 21
DS 2.54 7.62 -2.54 7.62 0.15 21
DS -2.54 7.62 -2.54 8.89 0.15 21
DS -8.89 -17.78 -8.89 15.24 0.15 21
DS -8.89 15.24 8.89 15.24 0.15 21
DS 8.89 15.24 8.89 -17.78 0.15 21
DS 8.89 -17.78 -8.89 -17.78 0.15 21
DS -3.81 0 0 -3.81 0.15 21
DS 0 -3.81 3.81 0 0.15 21
DS 3.81 0 0 3.81 0.15 21
DS 0 3.81 -3.81 0 0.15 21
$PAD
Sh "17" C 1.5 1.5 0 0 0
Dr 0.8 0 0
At STD N 00E0FFFF
Ne 0 ""
Po 7.62 3.81
$EndPAD
$PAD
Sh "16" C 1.5 1.5 0 0 0
Dr 0.8 0 0
At STD N 00E0FFFF
Ne 0 ""
Po 7.62 6.35
$EndPAD
$PAD
Sh "15" C 1.5 1.5 0 0 0
Dr 0.8 0 0
At STD N 00E0FFFF
Ne 0 ""
Po 7.62 8.89
$EndPAD
$PAD
Sh "14" C 1.5 1.5 0 0 0
Dr 0.8 0 0
At STD N 00E0FFFF
Ne 0 ""
Po 7.62 11.43
$EndPAD
$PAD
Sh "13" C 1.5 1.5 0 0 0
Dr 0.8 0 0
At STD N 00E0FFFF
Ne 0 ""
Po 7.62 13.97
$EndPAD
$PAD
Sh "12" C 1.5 1.5 0 0 0
Dr 0.8 0 0
At STD N 00E0FFFF
Ne 0 ""
Po -7.62 13.97
$EndPAD
$PAD
Sh "11" C 1.5 1.5 0 0 0
Dr 0.8 0 0
At STD N 00E0FFFF
Ne 0 ""
Po -7.62 11.43
$EndPAD
$PAD
Sh "10" C 1.5 1.5 0 0 0
Dr 0.8 0 0
At STD N 00E0FFFF
Ne 0 ""
Po -7.62 8.89
$EndPAD
$PAD
Sh "9" C 1.5 1.5 0 0 0
Dr 0.8 0 0
At STD N 00E0FFFF
Ne 0 ""
Po -7.62 6.35
$EndPAD
$PAD
Sh "8" C 1.5 1.5 0 0 0
Dr 0.8 0 0
At STD N 00E0FFFF
Ne 0 ""
Po -7.62 3.81
$EndPAD
$PAD
Sh "7" C 1.5 1.5 0 0 0
Dr 0.8 0 0
At STD N 00E0FFFF
Ne 0 ""
Po -7.62 1.27
$EndPAD
$PAD
Sh "6" C 1.5 1.5 0 0 0
Dr 0.8 0 0
At STD N 00E0FFFF
Ne 0 ""
Po -7.62 -1.27
$EndPAD
$PAD
Sh "5" C 1.5 1.5 0 0 0
Dr 0.8 0 0
At STD N 00E0FFFF
Ne 0 ""
Po -7.62 -3.81
$EndPAD
$PAD
Sh "4" C 1.5 1.5 0 0 0
Dr 0.8 0 0
At STD N 00E0FFFF
Ne 0 ""
Po -7.62 -6.35
$EndPAD
$PAD
Sh "3" C 1.5 1.5 0 0 0
Dr 0.8 0 0
At STD N 00E0FFFF
Ne 0 ""
Po -7.62 -8.89
$EndPAD
$PAD
Sh "2" C 1.5 1.5 0 0 0
Dr 0.8 0 0
At STD N 00E0FFFF
Ne 0 ""
Po -7.62 -11.43
$EndPAD
$PAD
Sh "1" R 1.5 1.5 0 0 0
Dr 0.8 0 0
At STD N 00E0FFFF
Ne 0 ""
Po -7.62 -13.97
$EndPAD
$PAD
Sh "18" C 1.5 1.5 0 0 0
Dr 0.8 0 0
At STD N 00E0FFFF
Ne 0 ""
Po 7.62 1.27
$EndPAD
$PAD
Sh "19" C 1.5 1.5 0 0 0
Dr 0.8 0 0
At STD N 00E0FFFF
Ne 0 ""
Po 7.62 -1.27
$EndPAD
$PAD
Sh "20" C 1.5 1.5 0 0 0
Dr 0.8 0 0
At STD N 00E0FFFF
Ne 0 ""
Po 7.62 -3.81
$EndPAD
$PAD
Sh "21" C 1.5 1.5 0 0 0
Dr 0.8 0 0
At STD N 00E0FFFF
Ne 0 ""
Po 7.62 -6.35
$EndPAD
$PAD
Sh "22" C 1.5 1.5 0 0 0
Dr 0.8 0 0
At STD N 00E0FFFF
Ne 0 ""
Po 7.62 -8.89
$EndPAD
$PAD
Sh "23" C 1.5 1.5 0 0 0
Dr 0.8 0 0
At STD N 00E0FFFF
Ne 0 ""
Po 7.62 -11.43
$EndPAD
$PAD
Sh "24" C 1.5 1.5 0 0 0
Dr 0.8 0 0
At STD N 00E0FFFF
Ne 0 ""
Po 7.62 -13.97
$EndPAD
$PAD
Sh "25" C 1.5 1.5 0 0 0
Dr 0.8 0 0
At STD N 00E0FFFF
Ne 0 ""
Po 5.08 -2.54
$EndPAD
$PAD
Sh "26" C 1.5 1.5 0 0 0
Dr 0.8 0 0
At STD N 00E0FFFF
Ne 0 ""
Po 5.08 -5.08
$EndPAD
$PAD
Sh "27" C 1.5 1.5 0 0 0
Dr 0.8 0 0
At STD N 00E0FFFF
Ne 0 ""
Po 6.35 -16.51
$EndPAD
$PAD
Sh "28" C 1.5 1.5 0 0 0
Dr 0.8 0 0
At STD N 00E0FFFF
Ne 0 ""
Po 3.81 -16.51
$EndPAD
$PAD
Sh "29" C 1.5 1.5 0 0 0
Dr 0.8 0 0
At STD N 00E0FFFF
Ne 0 ""
Po 1.27 -16.51
$EndPAD
$PAD
Sh "30" C 1.5 1.5 0 0 0
Dr 0.8 0 0
At STD N 00E0FFFF
Ne 0 ""
Po -1.27 -16.51
$EndPAD
$PAD
Sh "31" C 1.5 1.5 0 0 0
Dr 0.8 0 0
At STD N 00E0FFFF
Ne 0 ""
Po -3.81 -16.51
$EndPAD
$PAD
Sh "32" C 1.5 1.5 0 0 0
Dr 0.8 0 0
At STD N 00E0FFFF
Ne 0 ""
Po -6.35 -16.51
$EndPAD
$EndMODULE Arduino_Mini_Pro
$MODULE CPOL2.5_4mm
Po 0 0 0 15 4FE5DD8D 00000000 ~~
Li CPOL2.5_4mm
Sc 0
AR 
Op 0 0 0
T0 -7.62 -7.62 1.524 1.524 0 0.3048 N V 21 N "CPOL2.5_4mm"
T1 -10.16 2.54 1.524 1.524 0 0.3048 N V 21 N "VAL**"
DC 0 -1.27 0 1.00076 0.381 21
$PAD
Sh "1" C 1.524 1.524 0 0 0
Dr 0.8128 0 0
At STD N 00E0FFFF
Ne 0 ""
Po 0 -2.54
$EndPAD
$PAD
Sh "2" R 1.524 1.524 0 0 0
Dr 0.8128 0 0
At STD N 00E0FFFF
Ne 0 ""
Po 0 0
$EndPAD
$EndMODULE CPOL2.5_4mm
$MODULE CPOL2.5_5mm
Po 0 0 0 15 4FE5DE2D 00000000 ~~
Li CPOL2.5_5mm
Sc 0
AR 
Op 0 0 0
T0 -2.99974 -5.00126 1.524 1.524 0 0.3048 N V 21 N "CPOL2.5_5mm"
T1 -4.0005 4.0005 1.524 1.524 0 0.3048 N V 21 N "VAL**"
DC 0 0 0 -2.49936 0.381 21
$PAD
Sh "1" C 1.524 1.524 0 0 0
Dr 0.8128 0 0
At STD N 00E0FFFF
Ne 0 ""
Po 0 -1.27
$EndPAD
$PAD
Sh "2" R 1.524 1.524 0 0 0
Dr 0.8128 0 0
At STD N 00E0FFFF
Ne 0 ""
Po 0 1.27
$EndPAD
$EndMODULE CPOL2.5_5mm
$MODULE CPOL2.5_6mm
Po 0 0 0 15 4FE5DE78 00000000 ~~
Li CPOL2.5_6mm
Sc 0
AR 
Op 0 0 0
T0 -7.62 -5.08 1.524 1.524 0 0.3048 N V 21 N "CPOL2.5_6mm"
T1 -6.35 3.81 1.524 1.524 0 0.3048 N V 21 N "VAL**"
DC 0 0 0 -2.99974 0.381 21
$PAD
Sh "1" C 1.524 1.524 0 0 0
Dr 0.8128 0 0
At STD N 00E0FFFF
Ne 0 ""
Po 0 -1.27
$EndPAD
$PAD
Sh "2" R 1.524 1.524 0 0 0
Dr 0.8128 0 0
At STD N 00E0FFFF
Ne 0 ""
Po 0 1.27
$EndPAD
$EndMODULE CPOL2.5_6mm
$MODULE CPOL2.5_7mm
Po 0 0 0 15 4FE5DEB4 00000000 ~~
Li CPOL2.5_7mm
Sc 0
AR 
Op 0 0 0
T0 -7.62 -5.08 1.524 1.524 0 0.3048 N V 21 N "CPOL2.5_6mm"
T1 -6.35 3.81 1.524 1.524 0 0.3048 N V 21 N "VAL**"
DC 0 0 0 -3.49758 0.381 21
$PAD
Sh "1" C 1.524 1.524 0 0 0
Dr 0.8128 0 0
At STD N 00E0FFFF
Ne 0 ""
Po 0 -1.27
$EndPAD
$PAD
Sh "2" R 1.524 1.524 0 0 0
Dr 0.8128 0 0
At STD N 00E0FFFF
Ne 0 ""
Po 0 1.27
$EndPAD
$EndMODULE CPOL2.5_7mm
$MODULE CPOL3.5_8mm
Po 0 0 0 15 519F8497 00000000 ~~
Li CPOL3.5_8mm
Sc 0
AR 
Op 0 0 0
T0 -7.62 -5.08 1.524 1.524 0 0.3048 N V 21 N "CPOL3.5_8mm"
T1 -6.35 3.81 1.524 1.524 0 0.3048 N V 21 N "VAL**"
DC 0 0 0 -3.99796 0.381 21
$PAD
Sh "1" C 1.524 1.524 0 0 0
Dr 0.8128 0 0
At STD N 00E0FFFF
Ne 0 ""
Po 0 -1.75006
$EndPAD
$PAD
Sh "2" R 1.524 1.524 0 0 0
Dr 0.8128 0 0
At STD N 00E0FFFF
Ne 0 ""
Po 0 1.75006
$EndPAD
$EndMODULE CPOL3.5_8mm
$MODULE CPOL5.0_12mm
Po 0 0 0 15 519F8513 00000000 ~~
Li CPOL5.0_12mm
Sc 0
AR 
Op 0 0 0
T0 0.1 -8.5 1.524 1.524 0 0.3048 N V 21 N "CPOL5.0_12mm"
T1 0.1 8 1.524 1.524 0 0.3048 N V 21 N "VAL**"
DC 0 0 6 0 0.5 21
$PAD
Sh "1" C 1.524 1.524 0 0 0
Dr 0.8128 0 0
At STD N 00E0FFFF
Ne 0 ""
Po 0 -2.5
$EndPAD
$PAD
Sh "2" R 1.524 1.524 0 0 0
Dr 0.8128 0 0
At STD N 00E0FFFF
Ne 0 ""
Po 0 2.5
$EndPAD
$EndMODULE CPOL5.0_12mm
$MODULE C_0201_test
Po 0 0 0 15 5415D524 00000000 ~~
Li C_0201_test
Cd Capacitor SMD 0201, reflow soldering, AVX (see smccp.pdf)
Kw capacitor 0201
Sc 0
AR 
Op 0 0 0
At SMD
T0 0 -1.7 1 1 0 0.15 N V 21 N "C_0201"
T1 0 1.7 1 1 0 0.15 N V 21 N "VAL**"
DS 0.125 0.4 -0.125 0.4 0.15 21
DS -0.125 -0.4 0.125 -0.4 0.15 21
$PAD
Sh "1" R 0.3 0.35 0 0 0
Dr 0 0 0
At SMD N 00888000
Ne 0 ""
Po -0.275 0
$EndPAD
$PAD
Sh "2" R 0.3 0.35 0 0 0
Dr 0 0 0
At SMD N 00888000
Ne 0 ""
Po 0.275 0
$EndPAD
$SHAPE3D
Na "../../../Desktop/testing.wrl"
Sc 1 1 1
Of 0 0 0
Ro 0 0 0
$EndSHAPE3D
$EndMODULE C_0201_test
$MODULE C_SMD_FK-D
Po 0 0 0 15 50BCBA1B 00000000 ~~
Li C_SMD_FK-D
Sc 0
AR 
Op 0 0 0
T0 0.8 5.1 1.524 1.524 0 0.3048 N V 21 N "C_SMD_FK-D"
T1 0 -5.4 1.524 1.524 0 0.3048 N V 21 N "VAL**"
T2 -2 -1.7 1.524 1.524 0 0.3048 N V 21 N "+"
DS -3.3 -1.9 -1.9 -3.3 0.381 21
DS 3.3 -1.9 3.3 0.2 0.381 21
DS -3.3 -1.9 -3.3 3.3 0.381 21
DS -1.8 -3.3 1.9 -3.3 0.381 21
DS 1.9 -3.3 3.3 -1.9 0.381 21
DS -3.3 3.3 3.3 3.3 0.381 21
DS 3.3 3.3 3.3 0 0.381 21
$PAD
Sh "1" R 0.8 2.8 0 0 0
Dr 0 0 0
At SMD N 00888000
Ne 0 ""
Po 0 -2.3
$EndPAD
$PAD
Sh "2" R 0.8 2.8 0 0 0
Dr 0 0 0
At SMD N 00888000
Ne 0 ""
Po 0 2.3
$EndPAD
$EndMODULE C_SMD_FK-D
$MODULE Conn2 WAGO 250-202 3.5mm
Po 0 0 0 15 51E94827 00000000 ~~
Li Conn2 WAGO 250-202 3.5mm
Sc 0
AR 
Op 0 0 0
T0 0 6.5 1 1 0 0.15 N V 21 N "WAGO250202"
T1 0 -11.5 1 1 0 0.15 N V 21 N "VAL**"
DC 3.5 2 4.6 2.65 0.15 21
DC 0 2 1.15 2.55 0.15 21
DS -1.75 0 -1.75 -7.3 0.15 21
DS 1.75 0 1.75 -7.35 0.15 21
DS 1.05 -3.9 -0.05 -3.9 0.15 21
DS 1.05 -3.85 1.05 -3.9 0.15 21
DS 1.05 -2.05 1.05 -3.85 0.15 21
DS -1.1 -2.05 1.05 -2.05 0.15 21
DS -1.1 -3.9 -1.1 -2.05 0.15 21
DS 0 -3.9 -1.1 -3.9 0.15 21
DS 0 -3.9 -1.1 -3.9 0.15 21
DS -1.1 -3.9 -1.1 -2.05 0.15 21
DS -1.1 -2.05 1.05 -2.05 0.15 21
DS 1.05 -2.05 1.05 -3.85 0.15 21
DS 1.05 -3.85 1.05 -3.9 0.15 21
DS 1.05 -3.9 -0.05 -3.9 0.15 21
DS 4.6 -3.9 3.5 -3.9 0.15 21
DS 4.6 -3.85 4.6 -3.9 0.15 21
DS 4.6 -2.05 4.6 -3.85 0.15 21
DS 2.45 -2.05 4.6 -2.05 0.15 21
DS 2.45 -3.9 2.45 -2.05 0.15 21
DS 3.55 -3.9 2.45 -3.9 0.15 21
DS 3.55 -3.9 2.45 -3.9 0.15 21
DS 2.45 -3.9 2.45 -2.05 0.15 21
DS 2.45 -2.05 4.6 -2.05 0.15 21
DS 4.6 -2.05 4.6 -3.85 0.15 21
DS 4.6 -3.85 4.6 -3.9 0.15 21
DS 4.6 -3.9 3.5 -3.9 0.15 21
DS 1.75 0 1.75 4.7 0.15 21
DS -1.75 0 -1.75 4.7 0.15 21
DS -3.25 0 5.25 0 0.15 21
DS -3.25 0 -3.25 4.7 0.15 21
DS -3.25 4.7 5.25 4.7 0.15 21
DS 5.25 4.7 5.25 -0.05 0.15 21
DS 5.25 -5 5.25 -7.3 0.15 21
DS 5.25 -7.3 -3.25 -7.3 0.15 21
DS -3.25 -5 -3.25 -7.3 0.15 21
DS -3.25 0 -3.25 -5 0.15 21
DS 5.25 0 5.25 -5 0.15 21
$PAD
Sh "1" C 1.5 1.5 0 0 0
Dr 1 0 0
At STD N 00E0FFFF
Ne 0 ""
Po 3.5 0
$EndPAD
$PAD
Sh "2" C 1.5 1.5 0 0 0
Dr 1 0 0
At STD N 00E0FFFF
Ne 0 ""
Po 0 -5
$EndPAD
$EndMODULE Conn2 WAGO 250-202 3.5mm
$MODULE Conn2 WAGO 250-502 5mm
Po 0 0 0 15 50B789E3 00000000 ~~
Li Conn2 WAGO 250-502 5mm
Sc 0
AR 
Op 0 0 0
T0 0.1 -7.4 1 1 0 0.15 N V 21 N "Conn2 WAGO 250-502 5mm"
T1 0.2 6.7 1 1 0 0.15 N V 21 N "VAL**"
DS -0.1 6.5 -5.7 6.5 0.15 21
DS -5.7 6.5 -5.8 6.5 0.15 21
DS -5.8 6.5 -5.8 -6.5 0.15 21
DS -5.8 -6.5 5.8 -6.5 0.15 21
DS 5.8 -6.5 5.8 6.5 0.15 21
DS 5.8 6.5 -0.1 6.5 0.15 21
$PAD
Sh "1" C 1.75 1.75 0 0 0
Dr 0.75 0 0
At STD N 00E0FFFF
Ne 0 ""
Po -2.5 0
$EndPAD
$PAD
Sh "2" C 1.75 1.75 0 0 0
Dr 0.75 0 0
At STD N 00E0FFFF
Ne 0 ""
Po 2.5 0
$EndPAD
$EndMODULE Conn2 WAGO 250-502 5mm
$MODULE Conn2 WAGO 2716-102 10mm
Po 0 0 0 15 51E9530E 00000000 ~~
Li Conn2 WAGO 2716-102 10mm
Sc 0
AR 
Op 0 0 0
T0 -0.3 12.7 1 1 0 0.15 N V 21 N "WAGO2716102"
T1 0 -8.9 1 1 0 0.15 N V 21 N "VAL**"
DS -0.05 -15.45 -0.05 -12.85 0.15 21
DS -10.05 -15.45 -10.05 -13.05 0.15 21
DS -10.05 -18.55 -10.05 -15.05 0.15 21
DS -0.05 -18.55 -10.05 -18.55 0.15 21
DS -0.05 11.45 -0.05 -18.55 0.15 21
DS -10.05 11.45 -0.05 11.45 0.15 21
DS -10.05 -13.05 -10.05 11.45 0.15 21
DS -10 0 -0.1 0 0.15 21
DC -5 5.9 -2.7 9 0.15 21
DC 5 5.9 7.3 9 0.15 21
DS 0 0 9.9 0 0.15 21
DS -0.05 -13.05 -0.05 11.45 0.15 21
DS -0.05 11.45 9.95 11.45 0.15 21
DS 9.95 11.45 9.95 -18.55 0.15 21
DS 9.95 -18.55 -0.05 -18.55 0.15 21
DS -0.05 -18.55 -0.05 -15.05 0.15 21
DS -0.05 -15.45 -0.05 -13.05 0.15 21
DS 9.95 -15.45 9.95 -12.85 0.15 21
$PAD
Sh "2" C 2.5 2.5 0 0 1800
Dr 1.3 0 0
At STD N 00E0FFFF
Ne 0 ""
Po -6.95 -2.95
$EndPAD
$PAD
Sh "2" C 2.5 2.5 0 0 1800
Dr 1.3 0 0
At STD N 00E0FFFF
Ne 0 ""
Po -6.95 -15.45
$EndPAD
$PAD
Sh "2" C 2.5 2.5 0 0 1800
Dr 1.3 0 0
At STD N 00E0FFFF
Ne 0 ""
Po -3.15 -15.45
$EndPAD
$PAD
Sh "2" C 2.5 2.5 0 0 1800
Dr 1.3 0 0
At STD N 00E0FFFF
Ne 0 ""
Po -3.15 -2.95
$EndPAD
$PAD
Sh "1" C 2.5 2.5 0 0 1800
Dr 1.3 0 0
At STD N 00E0FFFF
Ne 0 ""
Po 6.85 -2.95
$EndPAD
$PAD
Sh "1" C 2.5 2.5 0 0 1800
Dr 1.3 0 0
At STD N 00E0FFFF
Ne 0 ""
Po 6.85 -15.45
$EndPAD
$PAD
Sh "1" C 2.5 2.5 0 0 1800
Dr 1.3 0 0
At STD N 00E0FFFF
Ne 0 ""
Po 3.05 -15.45
$EndPAD
$PAD
Sh "1" C 2.5 2.5 0 0 1800
Dr 1.3 0 0
At STD N 00E0FFFF
Ne 0 ""
Po 3.05 -2.95
$EndPAD
$EndMODULE Conn2 WAGO 2716-102 10mm
$MODULE Conn2_Phoenix_MKDS_5
Po 0 0 0 15 5290E26C 00000000 ~~
Li Conn2_Phoenix_MKDS_5
Sc 0
AR 
Op 0 0 0
T0 -0.7 -7.2 1 1 0 0.15 N V 21 N "Conn2_Phoenix_MKDS_5"
T1 7.6 7.5 1 1 0 0.15 N V 21 N "VAL**"
DC -4.7 -1.6 -2.2 -1.6 0.15 21
DC 4.8 -1.5 7.3 -1.4 0.15 21
DS 3 3.4 2 6.3 0.15 21
DS -3 3.4 -2 6.3 0.15 21
DS 7.5 6.3 6.5 3.4 0.15 21
DS -7.5 6.3 -6.5 3.4 0.15 21
DS -9.5 3.4 9.5 3.4 0.15 21
DS -9.5 6.3 -9.5 -6.2 0.15 21
DS -9.5 -6.2 9.5 -6.2 0.15 21
DS 9.5 -6.2 9.5 6.3 0.15 21
DS 9.5 6.3 -9.5 6.3 0.15 21
$PAD
Sh "1" R 3 3 0 0 0
Dr 1.5 0 0
At STD N 00E0FFFF
Ne 0 ""
Po -4.7 -1.6
$EndPAD
$PAD
Sh "2" O 2.5 3.5 0 0 0
Dr 1.5 0 0
At STD N 00E0FFFF
Ne 0 ""
Po 4.8 -1.6
$EndPAD
$EndMODULE Conn2_Phoenix_MKDS_5
$MODULE Conn4 WAGO 250-204 3.5mm
Po 0 0 0 15 51E95819 00000000 ~~
Li Conn4 WAGO 250-204 3.5mm
Sc 0
AR 
Op 0 0 0
T0 0 6.5 1 1 0 0.15 N V 21 N "WAGO250204"
T1 -6.2 -8.1 1 1 0 0.15 N V 21 N "VAL**"
DS 7.05 0 7.05 -5 0.15 21
DS 7.05 -7.3 -1.45 -7.3 0.15 21
DS 7.05 -5 7.05 -7.3 0.15 21
DS 7.05 4.7 7.05 -0.05 0.15 21
DS -1.45 4.7 7.05 4.7 0.15 21
DS -1.45 0 7.05 0 0.15 21
DS 0.05 0 0.05 4.7 0.15 21
DS 3.55 0 3.55 4.7 0.15 21
DS 6.4 -3.9 5.3 -3.9 0.15 21
DS 6.4 -3.85 6.4 -3.9 0.15 21
DS 6.4 -2.05 6.4 -3.85 0.15 21
DS 4.25 -2.05 6.4 -2.05 0.15 21
DS 4.25 -3.9 4.25 -2.05 0.15 21
DS 5.35 -3.9 4.25 -3.9 0.15 21
DS 5.35 -3.9 4.25 -3.9 0.15 21
DS 4.25 -3.9 4.25 -2.05 0.15 21
DS 4.25 -2.05 6.4 -2.05 0.15 21
DS 6.4 -2.05 6.4 -3.85 0.15 21
DS 6.4 -3.85 6.4 -3.9 0.15 21
DS 6.4 -3.9 5.3 -3.9 0.15 21
DS 2.85 -3.9 1.75 -3.9 0.15 21
DS 2.85 -3.85 2.85 -3.9 0.15 21
DS 2.85 -2.05 2.85 -3.85 0.15 21
DS 0.7 -2.05 2.85 -2.05 0.15 21
DS 0.7 -3.9 0.7 -2.05 0.15 21
DS 1.8 -3.9 0.7 -3.9 0.15 21
DS 1.8 -3.9 0.7 -3.9 0.15 21
DS 0.7 -3.9 0.7 -2.05 0.15 21
DS 0.7 -2.05 2.85 -2.05 0.15 21
DS 2.85 -2.05 2.85 -3.85 0.15 21
DS 2.85 -3.85 2.85 -3.9 0.15 21
DS 2.85 -3.9 1.75 -3.9 0.15 21
DS 3.55 0 3.55 -7.35 0.15 21
DS 0.05 0 0.05 -7.3 0.15 21
DC 1.8 2 2.95 2.55 0.15 21
DC 5.3 2 6.4 2.65 0.15 21
DC -1.7 2 -0.6 2.65 0.15 21
DC -5.2 2 -4.05 2.55 0.15 21
DS -6.95 0 -6.95 -7.3 0.15 21
DS -3.45 0 -3.45 -7.35 0.15 21
DS -4.15 -3.9 -5.25 -3.9 0.15 21
DS -4.15 -3.85 -4.15 -3.9 0.15 21
DS -4.15 -2.05 -4.15 -3.85 0.15 21
DS -6.3 -2.05 -4.15 -2.05 0.15 21
DS -6.3 -3.9 -6.3 -2.05 0.15 21
DS -5.2 -3.9 -6.3 -3.9 0.15 21
DS -5.2 -3.9 -6.3 -3.9 0.15 21
DS -6.3 -3.9 -6.3 -2.05 0.15 21
DS -6.3 -2.05 -4.15 -2.05 0.15 21
DS -4.15 -2.05 -4.15 -3.85 0.15 21
DS -4.15 -3.85 -4.15 -3.9 0.15 21
DS -4.15 -3.9 -5.25 -3.9 0.15 21
DS -0.6 -3.9 -1.7 -3.9 0.15 21
DS -0.6 -3.85 -0.6 -3.9 0.15 21
DS -0.6 -2.05 -0.6 -3.85 0.15 21
DS -2.75 -2.05 -0.6 -2.05 0.15 21
DS -2.75 -3.9 -2.75 -2.05 0.15 21
DS -1.65 -3.9 -2.75 -3.9 0.15 21
DS -1.65 -3.9 -2.75 -3.9 0.15 21
DS -2.75 -3.9 -2.75 -2.05 0.15 21
DS -2.75 -2.05 -0.6 -2.05 0.15 21
DS -0.6 -2.05 -0.6 -3.85 0.15 21
DS -0.6 -3.85 -0.6 -3.9 0.15 21
DS -0.6 -3.9 -1.7 -3.9 0.15 21
DS -3.45 0 -3.45 4.7 0.15 21
DS -6.95 0 -6.95 4.7 0.15 21
DS -8.45 0 0.05 0 0.15 21
DS -8.45 0 -8.45 4.7 0.15 21
DS -8.45 4.7 0.05 4.7 0.15 21
DS 0.05 4.7 0.05 -0.05 0.15 21
DS 0.05 -5 0.05 -7.3 0.15 21
DS 0.05 -7.3 -8.45 -7.3 0.15 21
DS -8.45 -5 -8.45 -7.3 0.15 21
DS -8.45 0 -8.45 -5 0.15 21
DS 0.05 0 0.05 -5 0.15 21
$PAD
Sh "2" C 1.5 1.5 0 0 0
Dr 1 0 0
At STD N 00E0FFFF
Ne 0 ""
Po 1.8 -5
$EndPAD
$PAD
Sh "1" C 1.5 1.5 0 0 0
Dr 1 0 0
At STD N 00E0FFFF
Ne 0 ""
Po 5.3 0
$EndPAD
$PAD
Sh "3" C 1.5 1.5 0 0 0
Dr 1 0 0
At STD N 00E0FFFF
Ne 0 ""
Po -1.7 0
$EndPAD
$PAD
Sh "4" C 1.5 1.5 0 0 0
Dr 1 0 0
At STD N 00E0FFFF
Ne 0 ""
Po -5.2 -5
$EndPAD
$EndMODULE Conn4 WAGO 250-204 3.5mm
$MODULE Conn4 WAGO 250-504 5mm
Po 0 0 0 15 50BC832D 00000000 ~~
Li Conn4 WAGO 250-504 5mm
Sc 0
AR 
Op 0 0 0
T0 0.1 -7.4 1 1 0 0.15 N V 21 N "Conn4 WAGO 250-504 5mm"
T1 0.2 6.7 1 1 0 0.15 N V 21 N "VAL**"
DS -4.4 6.5 -10.8 6.5 0.15 21
DS -10.8 6.5 -10.8 -6.5 0.15 21
DS -10.8 -6.5 -5.3 -6.5 0.15 21
DS 5.8 6.5 10.8 6.5 0.15 21
DS 10.8 6.5 10.8 -6.5 0.15 21
DS 10.8 -6.5 5.8 -6.5 0.15 21
DS 5.8 6.5 -0.1 6.5 0.15 21
DS -5.8 -6.5 5.8 -6.5 0.15 21
DS -5.7 6.5 -5.8 6.5 0.15 21
DS -0.1 6.5 -5.7 6.5 0.15 21
DS -0.1 6.5 -5.7 6.5 0.15 21
DS -5.7 6.5 -5.8 6.5 0.15 21
DS -5.8 -6.5 5.8 -6.5 0.15 21
DS 5.8 6.5 -0.1 6.5 0.15 21
$PAD
Sh "3" C 1.75 1.75 0 0 0
Dr 0.75 0 0
At STD N 00E0FFFF
Ne 0 ""
Po 2.5 0
$EndPAD
$PAD
Sh "2" C 1.75 1.75 0 0 0
Dr 0.75 0 0
At STD N 00E0FFFF
Ne 0 ""
Po -2.5 0
$EndPAD
$PAD
Sh "1" C 1.75 1.75 0 0 0
Dr 0.75 0 0
At STD N 00E0FFFF
Ne 0 ""
Po -7.5 0
$EndPAD
$PAD
Sh "4" C 1.75 1.75 0 0 0
Dr 0.75 0 0
At STD N 00E0FFFF
Ne 0 ""
Po 7.5 0
$EndPAD
$EndMODULE Conn4 WAGO 250-504 5mm
$MODULE Conn8 WAGO250-208 3.5mm
Po 0 0 0 15 51E9636B 00000000 ~~
Li Conn8 WAGO250-208 3.5mm
Sc 0
AR 
Op 0 0 0
T0 0 6.5 1 1 0 0.15 N V 21 N "WAGO250208"
T1 -12.8 -8.3 1 1 0 0.15 N V 21 N "VAL**"
DS 6.95 -0.1 6.95 -5.1 0.15 21
DS 6.95 -7.4 -1.55 -7.4 0.15 21
DS 6.95 -5.1 6.95 -7.4 0.15 21
DS 6.95 4.6 6.95 -0.15 0.15 21
DS -1.55 4.6 6.95 4.6 0.15 21
DS -1.55 -0.1 6.95 -0.1 0.15 21
DS -0.05 -0.1 -0.05 4.6 0.15 21
DS 3.45 -0.1 3.45 4.6 0.15 21
DS 6.3 -4 5.2 -4 0.15 21
DS 6.3 -3.95 6.3 -4 0.15 21
DS 6.3 -2.15 6.3 -3.95 0.15 21
DS 4.15 -2.15 6.3 -2.15 0.15 21
DS 4.15 -4 4.15 -2.15 0.15 21
DS 5.25 -4 4.15 -4 0.15 21
DS 5.25 -4 4.15 -4 0.15 21
DS 4.15 -4 4.15 -2.15 0.15 21
DS 4.15 -2.15 6.3 -2.15 0.15 21
DS 6.3 -2.15 6.3 -3.95 0.15 21
DS 6.3 -3.95 6.3 -4 0.15 21
DS 6.3 -4 5.2 -4 0.15 21
DS 2.75 -4 1.65 -4 0.15 21
DS 2.75 -3.95 2.75 -4 0.15 21
DS 2.75 -2.15 2.75 -3.95 0.15 21
DS 0.6 -2.15 2.75 -2.15 0.15 21
DS 0.6 -4 0.6 -2.15 0.15 21
DS 1.7 -4 0.6 -4 0.15 21
DS 1.7 -4 0.6 -4 0.15 21
DS 0.6 -4 0.6 -2.15 0.15 21
DS 0.6 -2.15 2.75 -2.15 0.15 21
DS 2.75 -2.15 2.75 -3.95 0.15 21
DS 2.75 -3.95 2.75 -4 0.15 21
DS 2.75 -4 1.65 -4 0.15 21
DS 3.45 -0.1 3.45 -7.45 0.15 21
DS -0.05 -0.1 -0.05 -7.4 0.15 21
DC 1.7 1.9 2.85 2.45 0.15 21
DC 5.2 1.9 6.3 2.55 0.15 21
DC 12.2 1.9 13.3 2.55 0.15 21
DC 8.7 1.9 9.85 2.45 0.15 21
DS 6.95 -0.1 6.95 -7.4 0.15 21
DS 10.45 -0.1 10.45 -7.45 0.15 21
DS 9.75 -4 8.65 -4 0.15 21
DS 9.75 -3.95 9.75 -4 0.15 21
DS 9.75 -2.15 9.75 -3.95 0.15 21
DS 7.6 -2.15 9.75 -2.15 0.15 21
DS 7.6 -4 7.6 -2.15 0.15 21
DS 8.7 -4 7.6 -4 0.15 21
DS 8.7 -4 7.6 -4 0.15 21
DS 7.6 -4 7.6 -2.15 0.15 21
DS 7.6 -2.15 9.75 -2.15 0.15 21
DS 9.75 -2.15 9.75 -3.95 0.15 21
DS 9.75 -3.95 9.75 -4 0.15 21
DS 9.75 -4 8.65 -4 0.15 21
DS 13.3 -4 12.2 -4 0.15 21
DS 13.3 -3.95 13.3 -4 0.15 21
DS 13.3 -2.15 13.3 -3.95 0.15 21
DS 11.15 -2.15 13.3 -2.15 0.15 21
DS 11.15 -4 11.15 -2.15 0.15 21
DS 12.25 -4 11.15 -4 0.15 21
DS 12.25 -4 11.15 -4 0.15 21
DS 11.15 -4 11.15 -2.15 0.15 21
DS 11.15 -2.15 13.3 -2.15 0.15 21
DS 13.3 -2.15 13.3 -3.95 0.15 21
DS 13.3 -3.95 13.3 -4 0.15 21
DS 13.3 -4 12.2 -4 0.15 21
DS 10.45 -0.1 10.45 4.6 0.15 21
DS 6.95 -0.1 6.95 4.6 0.15 21
DS 5.45 -0.1 13.95 -0.1 0.15 21
DS 5.45 4.6 13.95 4.6 0.15 21
DS 13.95 4.6 13.95 -0.15 0.15 21
DS 13.95 -5.1 13.95 -7.4 0.15 21
DS 13.95 -7.4 5.45 -7.4 0.15 21
DS 13.95 -0.1 13.95 -5.1 0.15 21
DS -0.05 -0.1 -0.05 -5.1 0.15 21
DS -0.05 -7.4 -8.55 -7.4 0.15 21
DS -0.05 -5.1 -0.05 -7.4 0.15 21
DS -0.05 4.6 -0.05 -0.15 0.15 21
DS -8.55 4.6 -0.05 4.6 0.15 21
DS -8.55 -0.1 -0.05 -0.1 0.15 21
DS -7.05 -0.1 -7.05 4.6 0.15 21
DS -3.55 -0.1 -3.55 4.6 0.15 21
DS -0.7 -4 -1.8 -4 0.15 21
DS -0.7 -3.95 -0.7 -4 0.15 21
DS -0.7 -2.15 -0.7 -3.95 0.15 21
DS -2.85 -2.15 -0.7 -2.15 0.15 21
DS -2.85 -4 -2.85 -2.15 0.15 21
DS -1.75 -4 -2.85 -4 0.15 21
DS -1.75 -4 -2.85 -4 0.15 21
DS -2.85 -4 -2.85 -2.15 0.15 21
DS -2.85 -2.15 -0.7 -2.15 0.15 21
DS -0.7 -2.15 -0.7 -3.95 0.15 21
DS -0.7 -3.95 -0.7 -4 0.15 21
DS -0.7 -4 -1.8 -4 0.15 21
DS -4.25 -4 -5.35 -4 0.15 21
DS -4.25 -3.95 -4.25 -4 0.15 21
DS -4.25 -2.15 -4.25 -3.95 0.15 21
DS -6.4 -2.15 -4.25 -2.15 0.15 21
DS -6.4 -4 -6.4 -2.15 0.15 21
DS -5.3 -4 -6.4 -4 0.15 21
DS -5.3 -4 -6.4 -4 0.15 21
DS -6.4 -4 -6.4 -2.15 0.15 21
DS -6.4 -2.15 -4.25 -2.15 0.15 21
DS -4.25 -2.15 -4.25 -3.95 0.15 21
DS -4.25 -3.95 -4.25 -4 0.15 21
DS -4.25 -4 -5.35 -4 0.15 21
DS -3.55 -0.1 -3.55 -7.45 0.15 21
DS -7.05 -0.1 -7.05 -7.4 0.15 21
DC -5.3 1.9 -4.15 2.45 0.15 21
DC -1.8 1.9 -0.7 2.55 0.15 21
DC -8.8 1.9 -7.7 2.55 0.15 21
DC -12.3 1.9 -11.15 2.45 0.15 21
DS -14.05 -0.1 -14.05 -7.4 0.15 21
DS -10.55 -0.1 -10.55 -7.45 0.15 21
DS -11.25 -4 -12.35 -4 0.15 21
DS -11.25 -3.95 -11.25 -4 0.15 21
DS -11.25 -2.15 -11.25 -3.95 0.15 21
DS -13.4 -2.15 -11.25 -2.15 0.15 21
DS -13.4 -4 -13.4 -2.15 0.15 21
DS -12.3 -4 -13.4 -4 0.15 21
DS -12.3 -4 -13.4 -4 0.15 21
DS -13.4 -4 -13.4 -2.15 0.15 21
DS -13.4 -2.15 -11.25 -2.15 0.15 21
DS -11.25 -2.15 -11.25 -3.95 0.15 21
DS -11.25 -3.95 -11.25 -4 0.15 21
DS -11.25 -4 -12.35 -4 0.15 21
DS -7.7 -4 -8.8 -4 0.15 21
DS -7.7 -3.95 -7.7 -4 0.15 21
DS -7.7 -2.15 -7.7 -3.95 0.15 21
DS -9.85 -2.15 -7.7 -2.15 0.15 21
DS -9.85 -4 -9.85 -2.15 0.15 21
DS -8.75 -4 -9.85 -4 0.15 21
DS -8.75 -4 -9.85 -4 0.15 21
DS -9.85 -4 -9.85 -2.15 0.15 21
DS -9.85 -2.15 -7.7 -2.15 0.15 21
DS -7.7 -2.15 -7.7 -3.95 0.15 21
DS -7.7 -3.95 -7.7 -4 0.15 21
DS -7.7 -4 -8.8 -4 0.15 21
DS -10.55 -0.1 -10.55 4.6 0.15 21
DS -14.05 -0.1 -14.05 4.6 0.15 21
DS -15.55 -0.1 -7.05 -0.1 0.15 21
DS -15.55 -0.1 -15.55 4.6 0.15 21
DS -15.55 4.6 -7.05 4.6 0.15 21
DS -7.05 4.6 -7.05 -0.15 0.15 21
DS -7.05 -5.1 -7.05 -7.4 0.15 21
DS -7.05 -7.4 -15.55 -7.4 0.15 21
DS -15.55 -5.1 -15.55 -7.4 0.15 21
DS -15.55 -0.1 -15.55 -5.1 0.15 21
DS -7.05 -0.1 -7.05 -5.1 0.15 21
$PAD
Sh "4" C 1.5 1.5 0 0 0
Dr 1 0 0
At STD N 00E0FFFF
Ne 0 ""
Po 1.7 -5.1
$EndPAD
$PAD
Sh "3" C 1.5 1.5 0 0 0
Dr 1 0 0
At STD N 00E0FFFF
Ne 0 ""
Po 5.2 -0.1
$EndPAD
$PAD
Sh "1" C 1.5 1.5 0 0 0
Dr 1 0 0
At STD N 00E0FFFF
Ne 0 ""
Po 12.2 -0.1
$EndPAD
$PAD
Sh "2" C 1.5 1.5 0 0 0
Dr 1 0 0
At STD N 00E0FFFF
Ne 0 ""
Po 8.7 -5.1
$EndPAD
$PAD
Sh "6" C 1.5 1.5 0 0 0
Dr 1 0 0
At STD N 00E0FFFF
Ne 0 ""
Po -5.3 -5.1
$EndPAD
$PAD
Sh "5" C 1.5 1.5 0 0 0
Dr 1 0 0
At STD N 00E0FFFF
Ne 0 ""
Po -1.8 -0.1
$EndPAD
$PAD
Sh "7" C 1.5 1.5 0 0 0
Dr 1 0 0
At STD N 00E0FFFF
Ne 0 ""
Po -8.8 -0.1
$EndPAD
$PAD
Sh "8" C 1.5 1.5 0 0 0
Dr 1 0 0
At STD N 00E0FFFF
Ne 0 ""
Po -12.3 -5.1
$EndPAD
$EndMODULE Conn8 WAGO250-208 3.5mm
$MODULE Conn_10 RIA 5,0
Po 0 0 0 15 50BC8194 00000000 ~~
Li Conn_10 RIA 5,0
Sc 0
AR 
Op 0 0 0
T0 0.1 5.2 1 1 0 0.15 N V 21 N "Conn_10 RIA 5,0"
T1 0.1 -5.1 1 1 0 0.15 N V 21 N "VAL**"
DS -25 0 -25 6.3 0.15 21
DS -25 0 -25 -6.3 0.15 21
DS -25 -6.3 25 -6.3 0.15 21
DS 25 -6.3 25 6.3 0.15 21
DS 25 6.3 -25 6.3 0.15 21
$PAD
Sh "1" C 2.5 2.5 0 0 0
Dr 1.3 0 0
At STD N 00E0FFFF
Ne 0 ""
Po -22.5 0
$EndPAD
$PAD
Sh "2" C 2.5 2.5 0 0 0
Dr 1.3 0 0
At STD N 00E0FFFF
Ne 0 ""
Po -17.5 0
$EndPAD
$PAD
Sh "3" C 2.5 2.5 0 0 0
Dr 1.3 0 0
At STD N 00E0FFFF
Ne 0 ""
Po -12.5 0
$EndPAD
$PAD
Sh "4" C 2.5 2.5 0 0 0
Dr 1.3 0 0
At STD N 00E0FFFF
Ne 0 ""
Po -7.5 0
$EndPAD
$PAD
Sh "5" C 2.5 2.5 0 0 0
Dr 1.3 0 0
At STD N 00E0FFFF
Ne 0 ""
Po -2.5 0
$EndPAD
$PAD
Sh "6" C 2.5 2.5 0 0 0
Dr 1.3 0 0
At STD N 00E0FFFF
Ne 0 ""
Po 2.5 0
$EndPAD
$PAD
Sh "7" C 2.5 2.5 0 0 0
Dr 1.3 0 0
At STD N 00E0FFFF
Ne 0 ""
Po 7.5 0
$EndPAD
$PAD
Sh "8" C 2.5 2.5 0 0 0
Dr 1.3 0 0
At STD N 00E0FFFF
Ne 0 ""
Po 12.5 0
$EndPAD
$PAD
Sh "9" C 2.5 2.5 0 0 0
Dr 1.3 0 0
At STD N 00E0FFFF
Ne 0 ""
Po 17.5 0
$EndPAD
$PAD
Sh "10" C 2.5 2.5 0 0 0
Dr 1.3 0 0
At STD N 00E0FFFF
Ne 0 ""
Po 22.5 0
$EndPAD
$EndMODULE Conn_10 RIA 5,0
$MODULE Conn_2_PTR-AK350_RM5mm
Po 0 0 0 15 5406D53D 00000000 ~~
Li Conn_2_PTR-AK350_RM5mm
Kw Connector
Sc 0
AR 
Op 0 0 0
T0 1 5.4 1 1 0 0.15 N V 21 N "Conn_PTR-AK350_RM5mm"
T1 -3.7 -5.5 1 1 0 0.15 N V 21 N "VAL**"
DS 3.9 4.5 3.3 1.9 0.3 21
DS 1.1 4.5 1.6 2 0.3 21
DS 3.3 1.9 1.7 1.9 0.3 21
DS -1.7 1.9 -3.3 1.9 0.3 21
DS -3.9 4.5 -3.4 2 0.3 21
DS -1.1 4.5 -1.7 1.9 0.3 21
DS -5.6 4.5 5 4.5 0.3 21
DS 5 4.5 5 -4.5 0.3 21
DS 5 -4.5 -5.6 -4.5 0.3 21
DS -5.6 -4.5 -5.6 4.5 0.3 21
$PAD
Sh "1" C 2.5 2.5 0 0 0
Dr 1 0 0
At STD N 00E0FFFF
Ne 0 ""
Po -2.5 0
$EndPAD
$PAD
Sh "2" C 2.5 2.5 0 0 0
Dr 1 0 0
At STD N 00E0FFFF
Ne 0 ""
Po 2.5 0
$EndPAD
$EndMODULE Conn_2_PTR-AK350_RM5mm
$MODULE DB9FC_EU
Po 0 0 0 15 51ED3F73 00000000 ~~
Li DB9FC_EU
Cd Connecteur DB9 female couche
Kw CONN DB9
Sc 0
AR /51DFF821
Op 0 0 0
T0 1.27 -10.16 1.524 1.524 0 0.3048 N V 21 N "J1"
T1 1.27 -3.81 1.524 1.524 0 0.3048 N V 21 N "Serial_IN_Female"
DS -15.4 2.3 15.4 2.3 0.3 21
DS -15.4 -12 0 -12 0.3 21
DS 0 -12 15.4 -12 0.3 21
DS -15.4 -12 -15.4 2.3 0.3 21
DS 15.4 -12 15.4 2.2 0.3 21
DS 8.5 -12 8.5 -18 0.3 21
DS 8.5 -18 -8.5 -18 0.3 21
DS -8.5 -18 -8.5 -12 0.3 21
DS 9.3 -7.9 9.3 -12 0.3 21
DS -9.1 -7.9 -9.1 -12 0.3 21
DS -9.017 -7.874 9.271 -7.874 0.3 21
$PAD
Sh "" C 3.81 3.81 0 0 0
Dr 3.048 0 0
At STD N 00E0FFFF
Ne 0 ""
Po 12.5 -0.1
$EndPAD
$PAD
Sh "" C 3.81 3.81 0 0 0
Dr 3.048 0 0
At STD N 00E0FFFF
Ne 0 ""
Po -12.5 -0.1
$EndPAD
$PAD
Sh "5" R 1.524 1.524 0 0 0
Dr 1.016 0 0
At STD N 00E0FFFF
Ne 0 ""
Po 5.588 1.27
$EndPAD
$PAD
Sh "4" C 1.524 1.524 0 0 0
Dr 1.016 0 0
At STD N 00E0FFFF
Ne 0 ""
Po 2.794 1.27
$EndPAD
$PAD
Sh "3" C 1.524 1.524 0 0 0
Dr 1.016 0 0
At STD N 00E0FFFF
Ne 0 ""
Po 0 1.27
$EndPAD
$PAD
Sh "2" C 1.524 1.524 0 0 0
Dr 1.016 0 0
At STD N 00E0FFFF
Ne 0 ""
Po -2.667 1.27
$EndPAD
$PAD
Sh "1" R 1.524 1.524 0 0 0
Dr 1.016 0 0
At STD N 00E0FFFF
Ne 0 ""
Po -5.461 1.27
$EndPAD
$PAD
Sh "6" C 1.524 1.524 0 0 0
Dr 1.016 0 0
At STD N 00E0FFFF
Ne 0 ""
Po -4.064 -1.27
$EndPAD
$PAD
Sh "7" C 1.524 1.524 0 0 0
Dr 1.016 0 0
At STD N 00E0FFFF
Ne 0 ""
Po -1.27 -1.27
$EndPAD
$PAD
Sh "8" C 1.524 1.524 0 0 0
Dr 1.016 0 0
At STD N 00E0FFFF
Ne 0 ""
Po 1.397 -1.27
$EndPAD
$PAD
Sh "9" C 1.524 1.524 0 0 0
Dr 1.016 0 0
At STD N 00E0FFFF
Ne 0 ""
Po 4.191 -1.27
$EndPAD
$SHAPE3D
Na "conn_DBxx/db9_male_pin90deg.wrl"
Sc 1 1 1
Of 0 0 0
Ro 0 0 0
$EndSHAPE3D
$EndMODULE DB9FC_EU
$MODULE DB9MC_EU
Po 0 0 0 15 51ED3E29 00000000 ~~
Li DB9MC_EU
Cd Connecteur DB9 male couche
Kw CONN DB9
Sc 0
AR /51DFF821
Op 0 0 0
T0 1.27 -10.16 1.524 1.524 0 0.3048 N V 21 N "J1"
T1 1.27 -3.81 1.524 1.524 0 0.3048 N V 21 N "Serial_IN_Male"
DS -15.4 2.3 15.4 2.3 0.3 21
DS -15.4 -12 0 -12 0.3 21
DS 0 -12 15.4 -12 0.3 21
DS -15.4 -12 -15.4 2.3 0.3 21
DS 15.4 -12 15.4 2.2 0.3 21
DS 8.5 -12 8.5 -18 0.3 21
DS 8.5 -18 -8.5 -18 0.3 21
DS -8.5 -18 -8.5 -12 0.3 21
DS 9.3 -7.9 9.3 -12 0.3 21
DS -9.1 -7.9 -9.1 -12 0.3 21
DS -9.017 -7.874 9.271 -7.874 0.3 21
$PAD
Sh "" C 3.81 3.81 0 0 0
Dr 3.048 0 0
At STD N 00E0FFFF
Ne 0 ""
Po 12.5 -0.1
$EndPAD
$PAD
Sh "" C 3.81 3.81 0 0 0
Dr 3.048 0 0
At STD N 00E0FFFF
Ne 0 ""
Po -12.5 -0.1
$EndPAD
$PAD
Sh "1" R 1.524 1.524 0 0 0
Dr 1.016 0 0
At STD N 00E0FFFF
Ne 0 ""
Po 5.588 1.27
$EndPAD
$PAD
Sh "2" C 1.524 1.524 0 0 0
Dr 1.016 0 0
At STD N 00E0FFFF
Ne 0 ""
Po 2.794 1.27
$EndPAD
$PAD
Sh "3" C 1.524 1.524 0 0 0
Dr 1.016 0 0
At STD N 00E0FFFF
Ne 0 ""
Po 0 1.27
$EndPAD
$PAD
Sh "4" C 1.524 1.524 0 0 0
Dr 1.016 0 0
At STD N 00E0FFFF
Ne 0 ""
Po -2.667 1.27
$EndPAD
$PAD
Sh "5" C 1.524 1.524 0 0 0
Dr 1.016 0 0
At STD N 00E0FFFF
Ne 0 ""
Po -5.461 1.27
$EndPAD
$PAD
Sh "9" C 1.524 1.524 0 0 0
Dr 1.016 0 0
At STD N 00E0FFFF
Ne 0 ""
Po -4.064 -1.27
$EndPAD
$PAD
Sh "8" C 1.524 1.524 0 0 0
Dr 1.016 0 0
At STD N 00E0FFFF
Ne 0 ""
Po -1.27 -1.27
$EndPAD
$PAD
Sh "7" C 1.524 1.524 0 0 0
Dr 1.016 0 0
At STD N 00E0FFFF
Ne 0 ""
Po 1.397 -1.27
$EndPAD
$PAD
Sh "6" C 1.524 1.524 0 0 0
Dr 1.016 0 0
At STD N 00E0FFFF
Ne 0 ""
Po 4.191 -1.27
$EndPAD
$SHAPE3D
Na "conn_DBxx/db9_male_pin90deg.wrl"
Sc 1 1 1
Of 0 0 0
Ro 0 0 0
$EndSHAPE3D
$EndMODULE DB9MC_EU
$MODULE DPAK2
Po 0 0 0 15 51F0F04F 00000000 ~~
Li DPAK2
Cd MOS boitier DPACK G-D-S
Kw CMD DPACK
Sc 0
AR /51DFD43B
Op 0 0 0
At SMD
T0 0 -10.414 1.27 1.016 0 0.2032 N V 21 N "Q2"
T1 0 -2.413 1.016 1.016 0 0.2032 N V 21 N "IRF1404S"
DS -1.8 4.3 -3.2 4.3 0.3 21
DS 1.9 4.3 3.3 4.3 0.3 21
DS 1.9 4.3 1.9 0 0.3 21
DS 3.3 4.3 3.3 0 0.3 21
DS -1.8 4.3 -1.8 0 0.3 21
DS -3.2 4.3 -3.2 0 0.3 21
DS -0.6985 0.0381 -0.6858 1.8161 0.3 21
DS -0.6858 1.8161 0.6985 1.8161 0.3 21
DS 0.6985 1.8161 0.6985 0.0254 0.3 21
DS -5.5 -10 -3.8 -11.7 0.3 21
DS -3.8 -11.7 3.8 -11.7 0.3 21
DS 3.8 -11.7 5.5 -10 0.3 21
DS -5.5 0 -5.5 -10 0.3 21
DS -5.5 -10 5.5 -10 0.3 21
DS 5.5 -10 5.5 0 0.3 21
DS 5.5 0 -5.5 0 0.3 21
$PAD
Sh "G" R 2.4 4.2 0 0 0
Dr 0 0 0
At SMD N 00888000
Ne 0 ""
Po -2.5 3.8
$EndPAD
$PAD
Sh "D" R 11.8 9.3 0 0 0
Dr 0 0 0
At SMD N 00888000
Ne 0 ""
Po 0 -7.5
$EndPAD
$PAD
Sh "S" R 2.4 4.2 0 0 0
Dr 0 0 0
At SMD N 00888000
Ne 0 ""
Po 2.6 3.8
$EndPAD
$SHAPE3D
Na "smd/dpack_2.wrl"
Sc 1 1 1
Of 0 0 0
Ro 0 0 0
$EndSHAPE3D
$EndMODULE DPAK2
$MODULE DPAK2_IRF1404
Po 0 0 0 15 51F0F04F 00000000 ~~
Li DPAK2_IRF1404
Cd MOS boitier DPACK G-D-S
Kw CMD DPACK
Sc 0
AR /51DFD43B
Op 0 0 0
At SMD
T0 0 -10.414 1.27 1.016 0 0.2032 N V 21 N "Q2"
T1 0 -2.413 1.016 1.016 0 0.2032 N V 21 N "IRF1404S"
DS -1.8 4.3 -3.2 4.3 0.3 21
DS 1.9 4.3 3.3 4.3 0.3 21
DS 1.9 4.3 1.9 0 0.3 21
DS 3.3 4.3 3.3 0 0.3 21
DS -1.8 4.3 -1.8 0 0.3 21
DS -3.2 4.3 -3.2 0 0.3 21
DS -0.6985 0.0381 -0.6858 1.8161 0.3 21
DS -0.6858 1.8161 0.6985 1.8161 0.3 21
DS 0.6985 1.8161 0.6985 0.0254 0.3 21
DS -5.5 -10 -3.8 -11.7 0.3 21
DS -3.8 -11.7 3.8 -11.7 0.3 21
DS 3.8 -11.7 5.5 -10 0.3 21
DS -5.5 0 -5.5 -10 0.3 21
DS -5.5 -10 5.5 -10 0.3 21
DS 5.5 -10 5.5 0 0.3 21
DS 5.5 0 -5.5 0 0.3 21
$PAD
Sh "G" R 2.4 4.2 0 0 0
Dr 0 0 0
At SMD N 00888000
Ne 0 ""
Po -2.5 3.8
$EndPAD
$PAD
Sh "D" R 11.8 9.3 0 0 0
Dr 0 0 0
At SMD N 00888000
Ne 0 ""
Po 0 -7.5
$EndPAD
$PAD
Sh "S" R 2.4 4.2 0 0 0
Dr 0 0 0
At SMD N 00888000
Ne 0 ""
Po 2.6 3.8
$EndPAD
$SHAPE3D
Na "smd/dpack_2.wrl"
Sc 1 1 1
Of 0 0 0
Ro 0 0 0
$EndSHAPE3D
$EndMODULE DPAK2_IRF1404
$MODULE DRILL_HOLE_4mm
Po 0 0 0 15 51A33D91 00000000 ~~
Li DRILL_HOLE_4mm
Cd module 1 pin (ou trou mecanique de percage)
Kw DEV
Sc 0
AR 1pin
Op 0 0 0
.LocalClearance 4
.ZoneConnection 0
T0 0 -5.5 1.016 1.016 0 0.254 N V 21 N "DRILL_HOLE_4mm"
T1 0 2.794 1.016 1.016 0 0.254 N I 21 N "P***"
DC 0 0 3 0 0.15 21
$PAD
Sh "1" C 6 6 0 0 0
Dr 4 0 0
At STD N 00E0FFFF
Ne 0 ""
Po 0 0
.ZoneConnection 0
$EndPAD
$EndMODULE DRILL_HOLE_4mm
$MODULE HEATSINK_TO220_FI343
Po 0 0 0 15 51A33159 00000000 ~~
Li HEATSINK_TO220_FI343
Sc 0
AR 
Op 0 0 0
T0 1 -3 1 1 0 0.15 N V 21 N "HEATSINK_TO220_FI343"
T1 -5 -1 1 1 0 0.15 N V 21 N "VAL**"
DS 5 0 -5.5 0 0.15 21
DS -5.5 0 -5.5 11 0.15 21
DS -5.5 11 -6 11 0.15 21
DS 7 11 7 -2 0.15 21
DS 7 -2 -7.5 -2 0.15 21
DS -7.5 -2 -7.5 11 0.15 21
DS -7.5 11 -6 11 0.15 21
DS 5 0 5 11 0.15 21
DS 5 11 7 11 0.15 21
$EndMODULE HEATSINK_TO220_FI343
$MODULE IRLL014N_SOT223
Po 0 0 0 15 536B6691 00000000 ~~
Li IRLL014N_SOT223
Cd module CMS SOT223 4 pins
Kw CMS SOT
Sc 0
AR /53442AA1
Op 0 0 0
At SMD
T0 0 -0.762 1.016 1.016 0 0.2032 N V 21 N "Q1"
T1 0 0.762 1.016 1.016 0 0.2032 N V 21 N "IRLL 014N"
DS -3.556 1.524 -3.556 4.572 0.2032 21
DS -3.556 4.572 3.556 4.572 0.2032 21
DS 3.556 4.572 3.556 1.524 0.2032 21
DS -3.556 -1.524 -3.556 -2.286 0.2032 21
DS -3.556 -2.286 -2.032 -4.572 0.2032 21
DS -2.032 -4.572 2.032 -4.572 0.2032 21
DS 2.032 -4.572 3.556 -2.286 0.2032 21
DS 3.556 -2.286 3.556 -1.524 0.2032 21
$PAD
Sh "D" R 3.6576 2.032 0 0 0
Dr 0 0 0
At SMD N 00888000
Ne 0 ""
Po 0 -3.302
$EndPAD
$PAD
Sh "D" R 1.016 2.032 0 0 0
Dr 0 0 0
At SMD N 00888000
Ne 0 ""
Po 0 3.302
$EndPAD
$PAD
Sh "S" R 1.016 2.032 0 0 0
Dr 0 0 0
At SMD N 00888000
Ne 0 ""
Po 2.286 3.302
$EndPAD
$PAD
Sh "G" R 1.016 2.032 0 0 0
Dr 0 0 0
At SMD N 00888000
Ne 0 ""
Po -2.286 3.302
$EndPAD
$SHAPE3D
Na "smd/SOT223.wrl"
Sc 0.4 0.4 0.4
Of 0 0 0
Ro 0 0 0
$EndSHAPE3D
$EndMODULE IRLL014N_SOT223
$MODULE Inductance_SMD_Fastron_1008F-100K-01_2.8x2.9
Po 0 0 0 15 54915384 00000000 ~~
Li Inductance_SMD_Fastron_1008F-100K-01_2.8x2.9
Sc 0
AR 
Op 0 0 0
T0 -1.2 3.1 1 1 0 0.15 N I 21 N "I"
T1 2.4 -0.1 1 1 900 0.15 N V 21 N "VAL**"
DS 0 1.5 -1.4 1.5 0.15 21
DS -1.4 1.5 -1.4 -1.5 0.15 21
DS -1.4 -1.5 1.4 -1.5 0.15 21
DS 1.4 -1.5 1.4 1.5 0.15 21
DS 0 1.5 1.4 1.5 0.15 21
$PAD
Sh "1" R 2.5 1 0 0 0
Dr 0 0 0
At SMD N 00888000
Ne 0 ""
Po 0 -1.2
$EndPAD
$PAD
Sh "2" R 2.5 1 0 0 0
Dr 0 0 0
At SMD N 00888000
Ne 0 ""
Po 0 1.2
$EndPAD
$EndMODULE Inductance_SMD_Fastron_1008F-100K-01_2.8x2.9
$MODULE Inductor_09HCP_Fastron
Po 0 0 0 15 5400444A 00000000 ~~
Li Inductor_09HCP_Fastron
Sc 0
AR 
Op 0 0 0
T0 0 8 1 1 0 0.15 N V 21 N "Inductor_09HCP_Fastron"
T1 9 5.8 1 1 0 0.15 N V 21 N "VAL**"
DC 0 0 6.8 -0.6 0.3 21
$PAD
Sh "1" C 2.5 2.5 0 0 0
Dr 1 0 0
At STD N 00E0FFFF
Ne 0 ""
Po 3.5 0
$EndPAD
$PAD
Sh "2" C 2.5 2.5 0 0 0
Dr 1 0 0
At STD N 00E0FFFF
Ne 0 ""
Po -3.5 0
$EndPAD
$EndMODULE Inductor_09HCP_Fastron
$MODULE Jack_Chinch_Standing
Po 0 0 0 15 5367A7C5 00000000 ~~
Li Jack_Chinch_Standing
Sc 0
AR 
Op 0 0 0
T0 0.1 2.5 1 1 0 0.15 N V 21 N "Chinch_Standing"
T1 0.4 -2.1 1 1 0 0.15 N V 21 N "VAL**"
DC 0 0 2.5 0 0.15 21
DC 0 0 5 0.1 0.15 21
$PAD
Sh "1" C 2 2 0 0 0
Dr 1.4 0 0
At STD N 00E0FFFF
Ne 0 ""
Po 0 0
$EndPAD
$PAD
Sh "2" C 3 3 0 0 0
Dr 1.8 0 0
At STD N 00E0FFFF
Ne 0 ""
Po 5 0
$EndPAD
$PAD
Sh "2" C 3 3 0 0 0
Dr 1.8 0 0
At STD N 00E0FFFF
Ne 0 ""
Po 0 -5
$EndPAD
$PAD
Sh "2" C 3 3 0 0 0
Dr 1.8 0 0
At STD N 00E0FFFF
Ne 0 ""
Po -5 0
$EndPAD
$PAD
Sh "2" C 3 3 0 0 0
Dr 1.8 0 0
At STD N 00E0FFFF
Ne 0 ""
Po 0 5
$EndPAD
$EndMODULE Jack_Chinch_Standing
$MODULE LED_SEOUL_RGB
Po 0 0 0 15 50890CBA 00000000 ~~
Li LED_SEOUL_RGB
Sc 0
AR 
Op 0 0 0
T0 0.3 4.1 1 1 0 0.15 N V 21 N "LED_SEOUL_RGB"
T1 -0.2 -4.3 1 1 0 0.15 N V 21 N "VAL**"
DC -1.8 1.7 -1.4 1.5 0.15 21
DS -2.6 2.4 2.6 2.4 0.15 21
DS 2.6 2.4 2.6 -2.4 0.15 21
DS 2.6 -2.4 -2.6 -2.4 0.15 21
DS -2.6 -2.4 -2.6 2.4 0.15 21
$PAD
Sh "7" R 3.5 4.7 0 0 0
Dr 0 0 0
At SMD N 00888000
Ne 0 ""
Po 0 0
$EndPAD
$PAD
Sh "1" R 0.8 1.2 0 0 0
Dr 0 0 0
At SMD N 00888000
Ne 0 ""
Po 2.65 -1.85
$EndPAD
$PAD
Sh "2" R 0.8 1.2 0 0 0
Dr 0 0 0
At SMD N 00888000
Ne 0 ""
Po 2.65 0
$EndPAD
$PAD
Sh "3" R 0.8 1.2 0 0 0
Dr 0 0 0
At SMD N 00888000
Ne 0 ""
Po 2.65 1.85
$EndPAD
$PAD
Sh "4" R 0.8 1.2 0 0 0
Dr 0 0 0
At SMD N 00888000
Ne 0 ""
Po -2.65 1.85
$EndPAD
$PAD
Sh "5" R 0.8 1.2 0 0 0
Dr 0 0 0
At SMD N 00888000
Ne 0 ""
Po -2.65 0
$EndPAD
$PAD
Sh "6" R 0.8 1.2 0 0 0
Dr 0 0 0
At SMD N 00888000
Ne 0 ""
Po -2.65 -1.85
$EndPAD
$EndMODULE LED_SEOUL_RGB
$MODULE LM317_SOT-223
Po 0 0 0 15 54915C83 00000000 ~~
Li LM317_SOT-223
Cd module CMS SOT223 4 pins
Kw CMS SOT
Sc 0
AR 
Op 0 0 0
At SMD
T0 0 -0.762 1.016 1.016 0 0.2032 N V 21 N "SOT223"
T1 0 0.762 1.016 1.016 0 0.2032 N V 21 N "Val**"
DS -3.556 1.524 -3.556 4.572 0.15 21
DS -3.556 4.572 3.556 4.572 0.15 21
DS 3.556 4.572 3.556 1.524 0.15 21
DS -3.556 -1.524 -3.556 -2.286 0.15 21
DS -3.556 -2.286 -2.032 -4.572 0.15 21
DS -2.032 -4.572 2.032 -4.572 0.15 21
DS 2.032 -4.572 3.556 -2.286 0.15 21
DS 3.556 -2.286 3.556 -1.524 0.15 21
$PAD
Sh "2" R 3.6576 2.032 0 0 0
Dr 0 0 0
At SMD N 00888000
Ne 0 ""
Po 0 -3.302
$EndPAD
$PAD
Sh "2" R 1.016 2.032 0 0 0
Dr 0 0 0
At SMD N 00888000
Ne 0 ""
Po 0 3.302
$EndPAD
$PAD
Sh "3" R 1.016 2.032 0 0 0
Dr 0 0 0
At SMD N 00888000
Ne 0 ""
Po 2.286 3.302
$EndPAD
$PAD
Sh "1" R 1.016 2.032 0 0 0
Dr 0 0 0
At SMD N 00888000
Ne 0 ""
Po -2.286 3.302
$EndPAD
$SHAPE3D
Na "smd/SOT223.wrl"
Sc 0.4 0.4 0.4
Of 0 0 0
Ro 0 0 0
$EndSHAPE3D
$EndMODULE LM317_SOT-223
$MODULE MOC3021
Po 0 0 0 15 5367A33D 00000000 ~~
Li MOC3021
Sc 0
AR 
Op 0 0 0
T0 0.1 1.2 1 1 0 0.15 N V 21 N "MOC3021"
T1 0 -1.4 1 1 0 0.15 N V 21 N "VAL**"
DC -3.4 2.2 -3 1.8 0.15 21
DS -4.4 -3.3 4.4 -3.3 0.15 21
DS 4.4 -3.3 4.4 3.3 0.15 21
DS 4.4 3.3 -4.4 3.3 0.15 21
DS -4.4 3.3 -4.4 -3.3 0.15 21
$PAD
Sh "1" R 1.8 1.5 0 0 0
Dr 0 0 0
At SMD N 00888000
Ne 0 ""
Po -2.54 4.5
$EndPAD
$PAD
Sh "2" R 1.8 1.5 0 0 0
Dr 0 0 0
At SMD N 00888000
Ne 0 ""
Po 0 4.5
$EndPAD
$PAD
Sh "3" R 1.8 1.5 0 0 0
Dr 0 0 0
At SMD N 00888000
Ne 0 ""
Po 2.54 4.5
$EndPAD
$PAD
Sh "4" R 1.8 1.5 0 0 0
Dr 0 0 0
At SMD N 00888000
Ne 0 ""
Po -2.54 -4.5
$EndPAD
$PAD
Sh "5" R 1.8 1.5 0 0 0
Dr 0 0 0
At SMD N 00888000
Ne 0 ""
Po 0 -4.5
$EndPAD
$PAD
Sh "6" R 1.8 1.5 0 0 0
Dr 0 0 0
At SMD N 00888000
Ne 0 ""
Po 2.54 -4.5
$EndPAD
$EndMODULE MOC3021
$MODULE MOC3021_SMD
Po 0 0 0 15 5367A33D 00000000 ~~
Li MOC3021_SMD
Sc 0
AR 
Op 0 0 0
T0 0.1 1.2 1 1 0 0.15 N V 21 N "MOC3021"
T1 0 -1.4 1 1 0 0.15 N V 21 N "VAL**"
DC -3.4 2.2 -3 1.8 0.15 21
DS -4.4 -3.3 4.4 -3.3 0.15 21
DS 4.4 -3.3 4.4 3.3 0.15 21
DS 4.4 3.3 -4.4 3.3 0.15 21
DS -4.4 3.3 -4.4 -3.3 0.15 21
$PAD
Sh "1" R 1.8 1.5 0 0 0
Dr 0 0 0
At SMD N 00888000
Ne 0 ""
Po -2.54 4.5
$EndPAD
$PAD
Sh "2" R 1.8 1.5 0 0 0
Dr 0 0 0
At SMD N 00888000
Ne 0 ""
Po 0 4.5
$EndPAD
$PAD
Sh "3" R 1.8 1.5 0 0 0
Dr 0 0 0
At SMD N 00888000
Ne 0 ""
Po 2.54 4.5
$EndPAD
$PAD
Sh "4" R 1.8 1.5 0 0 0
Dr 0 0 0
At SMD N 00888000
Ne 0 ""
Po -2.54 -4.5
$EndPAD
$PAD
Sh "5" R 1.8 1.5 0 0 0
Dr 0 0 0
At SMD N 00888000
Ne 0 ""
Po 0 -4.5
$EndPAD
$PAD
Sh "6" R 1.8 1.5 0 0 0
Dr 0 0 0
At SMD N 00888000
Ne 0 ""
Po 2.54 -4.5
$EndPAD
$EndMODULE MOC3021_SMD
$MODULE PIS4728_Inductance
Po 0 0 0 15 50F46823 00000000 ~~
Li PIS4728_Inductance
Sc 0
AR 
Op 0 0 0
T0 0 2.4 1 1 0 0.15 N V 21 N "PIS4728"
T1 8.9 -5 1 1 0 0.15 N V 21 N "VAL**"
DS -6.1 -6.1 6.1 -6.1 0.15 21
DS 6.1 -6.1 6.1 6.1 0.15 21
DS 6.1 6.1 -6 6.1 0.15 21
DS -6 6.1 -6.1 6.1 0.15 21
DS -6.1 6.1 -6.1 -6.1 0.15 21
$PAD
Sh "1" R 5.4 2.9 0 0 0
Dr 0 0 0
At SMD N 00888000
Ne 0 ""
Po 0 5.8
$EndPAD
$PAD
Sh "2" R 5.4 2.9 0 0 0
Dr 0 0 0
At SMD N 00888000
Ne 0 ""
Po 0 -5.8
$EndPAD
$EndMODULE PIS4728_Inductance
$MODULE POT_ALPSRK09
Po 0 0 0 15 500C12D6 00000000 ~~
Li POT_ALPSRK09
Sc 0
AR 
Op 0 0 0
T0 0.59944 -14.09954 1.524 1.524 0 0.3048 N V 21 N "POT_ALPSRK09"
T1 7.39902 0.20066 1.524 1.524 0 0.3048 N V 21 N "VAL**"
DS -1.99898 -9.19988 0.09906 -6.79958 0.381 21
DC 0 -7.00024 2.99974 -7.2009 0.381 21
DS -4.89966 -1.50114 -4.89966 -12.49934 0.381 21
DS -4.89966 -12.49934 4.89966 -12.49934 0.381 21
DS 4.89966 -12.49934 4.89966 -6.90118 0.381 21
DS 4.89966 -7.00024 4.89966 -1.50114 0.381 21
DS 4.89966 -1.50114 -4.89966 -1.50114 0.381 21
$PAD
Sh "2" C 1.82372 1.82372 0 0 0
Dr 1.00076 0 0
At STD N 00E0FFFF
Ne 0 ""
Po 0 0
$EndPAD
$PAD
Sh "1" C 1.82372 1.82372 0 0 0
Dr 1.00076 0 0
At STD N 00E0FFFF
Ne 0 ""
Po 2.49936 0
$EndPAD
$PAD
Sh "3" C 1.82372 1.82372 0 0 0
Dr 1.00076 0 0
At STD N 00E0FFFF
Ne 0 ""
Po -2.49936 0
$EndPAD
$PAD
Sh "13" R 2.10058 2.10058 0 0 0
Dr 1.99898 0 0
At STD N 00E0FFFF
Ne 0 ""
Po -5.30098 -7.00024
$EndPAD
$PAD
Sh "14" R 2.10058 2.10058 0 0 0
Dr 1.99898 0 0
At STD N 00E0FFFF
Ne 0 ""
Po 5.30098 -7.00024
$EndPAD
$EndMODULE POT_ALPSRK09
$MODULE POT_ALPSRK09_Vert
Po 0 0 0 15 5151877C 00000000 ~~
Li POT_ALPSRK09_Vert
Sc 0
AR 
Op 0 0 0
T0 0.59944 -14.09954 1.524 1.524 0 0.3048 N V 21 N "POT_ALPSRK09"
T1 7.39902 0.20066 1.524 1.524 0 0.3048 N V 21 N "VAL**"
DS -3 2.6 -3 11.8 0.381 21
DS -3 11.8 3 11.8 0.381 21
DS 3 11.8 3 2.6 0.381 21
DS 0 -5.7 4.9 -5.7 0.381 21
DS 4.9 -5.7 4.9 2.6 0.381 21
DS 4.9 2.6 -4.9 2.6 0.381 21
DS -4.9 2.6 -4.9 -5.7 0.381 21
DS -4.9 -5.7 0 -5.7 0.381 21
$PAD
Sh "2" C 1.82372 1.82372 0 0 0
Dr 1.00076 0 0
At STD N 00E0FFFF
Ne 0 ""
Po 0 0
$EndPAD
$PAD
Sh "1" C 1.82372 1.82372 0 0 0
Dr 1.00076 0 0
At STD N 00E0FFFF
Ne 0 ""
Po 2.49936 0
$EndPAD
$PAD
Sh "3" C 1.82372 1.82372 0 0 0
Dr 1.00076 0 0
At STD N 00E0FFFF
Ne 0 ""
Po -2.49936 0
$EndPAD
$PAD
Sh "13" R 2.10058 2.10058 0 0 0
Dr 1.99898 0 0
At STD N 00E0FFFF
Ne 0 ""
Po -5.3 -3.3
$EndPAD
$PAD
Sh "14" R 2.10058 2.10058 0 0 0
Dr 1.99898 0 0
At STD N 00E0FFFF
Ne 0 ""
Po 5.3 -3.3
$EndPAD
$EndMODULE POT_ALPSRK09_Vert
$MODULE Poti_4mm
Po 0 0 0 15 510ACA18 00000000 ~~
Li Poti_4mm
Sc 0
AR 
Op 0 0 0
T0 0 -5.9 1.524 1.524 0 0.3048 N V 21 N "Poti_4mm"
T1 0 8.6 1.524 1.524 0 0.3048 N V 21 N "VAL**"
DS 2 6.1 2 17.1 0.381 21
DS 2 17.1 -1.9 17.1 0.381 21
DS -1.9 17.1 -1.8 6 0.381 21
DS 3.1 1.3 3.1 6 0.381 21
DS 3.1 6 -3 6 0.381 21
DS -3 6 -3 1.3 0.381 21
DS 0 1.3 8.5 1.3 0.381 21
DS 8.5 1.3 8.5 -8 0.381 21
DS 8.5 -8 -8.5 -8 0.381 21
DS -8.5 -8 -8.5 1.3 0.381 21
DS -8.5 1.3 0.1 1.3 0.381 21
$PAD
Sh "2" C 2 2 0 0 0
Dr 1.3 0 0
At STD N 00E0FFFF
Ne 0 ""
Po 0 0
$EndPAD
$PAD
Sh "1" C 2 2 0 0 0
Dr 1.3 0 0
At STD N 00E0FFFF
Ne 0 ""
Po -5 0
$EndPAD
$PAD
Sh "3" C 2 2 0 0 0
Dr 1.3 0 0
At STD N 00E0FFFF
Ne 0 ""
Po 4.9 0
$EndPAD
$EndMODULE Poti_4mm
$MODULE PrecisionTrimmer
Po 0 0 0 15 506D6B9C 00000000 ~~
Li PrecisionTrimmer
Sc 0
AR 
Op 0 0 0
T0 -0.09906 -3.8989 1.524 1.524 0 0.3048 N V 21 N "PrecisionTrimmer"
T1 -5.99948 1.30048 1.524 1.524 0 0.3048 N V 21 N "VAL**"
DS 10.50036 -1.50114 10.50036 1.50114 0.381 21
DS 9.4996 -1.50114 11.00074 -1.50114 0.381 21
DS 11.00074 -1.50114 11.00074 1.50114 0.381 21
DS 11.00074 1.50114 9.4996 1.50114 0.381 21
DS -9.4996 0 -9.4996 -2.49936 0.381 21
DS -9.4996 -2.49936 9.4996 -2.49936 0.381 21
DS 9.4996 -2.49936 9.4996 2.49936 0.381 21
DS 9.4996 2.49936 -9.4996 2.49936 0.381 21
DS -9.4996 2.49936 -9.4996 0 0.381 21
$PAD
Sh "1" C 1.524 1.524 0 0 0
Dr 0.8128 0 0
At STD N 00E0FFFF
Ne 0 ""
Po 6.2992 -1.19888
$EndPAD
$PAD
Sh "2" C 1.524 1.524 0 0 0
Dr 0.8128 0 0
At STD N 00E0FFFF
Ne 0 ""
Po 1.19888 1.30048
$EndPAD
$PAD
Sh "3" C 1.524 1.524 0 0 0
Dr 0.8128 0 0
At STD N 00E0FFFF
Ne 0 ""
Po -6.4008 -1.19888
$EndPAD
$EndMODULE PrecisionTrimmer
$MODULE RELAY_HJR-3FF
Po 0 0 0 15 51AC93B5 00000000 ~~
Li RELAY_HJR-3FF
Sc 0
AR /519D1AD4
Op 0 0 0
T0 -0.5 -2 1 1 0 0.15 N V 21 N "K2"
T1 0 6.5 1 1 0 0.15 N V 21 N "RELAY"
DS 9.4 7.9 -9.6 7.9 0.15 21
DS -9.6 7.9 -9.6 -7.1 0.15 21
DS -9.6 -7.1 9.4 -7.1 0.15 21
DS 9.4 -7.1 9.4 7.9 0.15 21
$PAD
Sh "1" C 2.5 2.5 0 0 0
Dr 1.5 0 0
At STD N 00E0FFFF
Ne 0 ""
Po -7 6.3
$EndPAD
$PAD
Sh "2" C 2.5 2.5 0 0 0
Dr 1.5 0 0
At STD N 00E0FFFF
Ne 0 ""
Po -7 -5.7
$EndPAD
$PAD
Sh "3" C 2.5 2.5 0 0 0
Dr 1.5 0 0
At STD N 00E0FFFF
Ne 0 ""
Po 7.2 0.3
.LocalClearance 0.5
$EndPAD
$PAD
Sh "4" C 2.5 2.5 0 0 0
Dr 1.5 0 0
At STD N 00E0FFFF
Ne 0 ""
Po 5.2 6.3
$EndPAD
$PAD
Sh "5" C 2.5 2.5 0 0 0
Dr 1.5 0 0
At STD N 00E0FFFF
Ne 0 ""
Po 5.2 -5.7
$EndPAD
$EndMODULE RELAY_HJR-3FF
$MODULE Relay_Finder_16A
Po 0 0 0 15 50A51194 00000000 ~~
Li Relay_Finder_16A
Sc 0
AR 
Op 0 0 0
T0 13.4 -6.4 1 1 0 0.15 N V 21 N "Relay_Finder_16A"
T1 10.5 -9.9 1 1 0 0.15 N V 21 N "VAL**"
DS 0.1 0 29.1 -0.1 0.15 21
DS 29.1 -0.1 29.1 -12.7 0.15 21
DS 29.1 -12.7 0.2 -12.7 0.15 21
DS 0.2 -12.7 0.2 0 0.15 21
$PAD
Sh "6" C 2.5 2.5 0 0 0
Dr 1.3 0 0
At STD N 00E0FFFF
Ne 0 ""
Po 27.54 -10.16
$EndPAD
$PAD
Sh "4" C 2.5 2.5 0 0 0
Dr 1.3 0 0
At STD N 00E0FFFF
Ne 0 ""
Po 35.08 -20.32
$EndPAD
$PAD
Sh "8" C 2.5 2.5 0 0 0
Dr 1.3 0 0
At STD N 00E0FFFF
Ne 0 ""
Po 22.54 -10.16
$EndPAD
$PAD
Sh "1" C 2.5 2.5 0 0 0
Dr 1.3 0 0
At STD N 00E0FFFF
Ne 0 ""
Po 2.54 -2.54
$EndPAD
$PAD
Sh "2" C 2.5 2.5 0 0 0
Dr 1.3 0 0
At STD N 00E0FFFF
Ne 0 ""
Po 2.54 -10.16
$EndPAD
$PAD
Sh "7" C 2.5 2.5 0 0 0
Dr 1.3 0 0
At STD N 00E0FFFF
Ne 0 ""
Po 22.54 -2.54
$EndPAD
$PAD
Sh "3" C 2.5 2.5 0 0 0
Dr 1.3 0 0
At STD N 00E0FFFF
Ne 0 ""
Po 17.54 -2.54
$EndPAD
$PAD
Sh "5" C 2.5 2.5 0 0 0
Dr 1.3 0 0
At STD N 00E0FFFF
Ne 0 ""
Po 27.54 -2.54
$EndPAD
$EndMODULE Relay_Finder_16A
$MODULE Relay_G5V-1
Po 0 0 0 15 53751C1A 00000000 ~~
Li Relay_G5V-1
Sc 0
AR 
Op 0 0 0
T0 -1.4351 2.1717 1 1 0 0.15 N V 21 N "RelayG5V1"
T1 -4.2926 -7.1628 1 1 0 0.15 N V 21 N "VAL**"
DS 8.763 1.27 -3.683 1.27 0.15 21
DS -3.683 -6.35 8.763 -6.35 0.15 21
DS 3.556 -2.667 2.413 -4.318 0.15 21
DS 2.413 -4.318 1.143 -6.096 0.15 21
DS 1.143 -6.096 -1.016 -6.096 0.15 21
DS -1.016 -6.096 -1.143 -2.667 0.15 21
DS 7.6581 -2.667 3.4671 -2.6797 0.15 21
DS 7.6581 -3.9624 7.6581 -1.2446 0.15 21
DS -2.4638 -3.7338 -1.1811 -2.5908 0.15 21
DS -3.1877 -1.1557 -1.905 -1.1303 0.15 21
DS -3.1369 -3.8862 -1.8161 -3.8735 0.15 21
DS -0.5969 -1.9939 -0.5969 -3.5306 0.15 21
DS 0.0254 -5.0546 0.0127 -3.5306 0.15 21
DS 0.5588 -3.5306 0.5588 -1.9939 0.15 21
DS 0 -1.9939 0 0 0.15 21
DS -3.683 -6.35 -3.683 1.27 0.15 21
DS 8.763 1.27 8.763 -6.35 0.15 21
$PAD
Sh "1" C 1.2 1.2 0 0 0
Dr 0.6 0 0
At STD N 00E0FFFF
Ne 0 ""
Po -2.54 0
$EndPAD
$PAD
Sh "4" C 1.2 1.2 0 0 0
Dr 0.6 0 0
At STD N 00E0FFFF
Ne 0 ""
Po 0 0
$EndPAD
$PAD
Sh "3" C 1.2 1.2 0 0 0
Dr 0.6 0 0
At STD N 00E0FFFF
Ne 0 ""
Po 7.62 0
$EndPAD
$PAD
Sh "2" C 1.2 1.2 0 0 0
Dr 0.6 0 0
At STD N 00E0FFFF
Ne 0 ""
Po -2.54 -5.08
$EndPAD
$PAD
Sh "5" C 1.2 1.2 0 0 0
Dr 0.6 0 0
At STD N 00E0FFFF
Ne 0 ""
Po 0 -5.08
$EndPAD
$PAD
Sh "3" C 1.2 1.2 0 0 0
Dr 0.6 0 0
At STD N 00E0FFFF
Ne 0 ""
Po 7.62 -5.08
$EndPAD
$EndMODULE Relay_G5V-1
$MODULE SMD_PushButton
Po 0 0 0 15 53B40D55 00000000 ~~
Li SMD_PushButton
Sc 0
AR 
Op 0 0 0
T0 0 0 1 1 0 0.15 N V 21 N "SMD_PushButton"
T1 0 0 1 1 0 0.15 N V 21 N "VAL**"
DS 0 -3.1 3.1 -3.1 0.15 21
DS 3.1 -3.1 3.1 3.1 0.15 21
DS 3.1 3.1 -3.1 3.1 0.15 21
DS -3.1 3.1 -3.1 -3.1 0.15 21
DS -3.1 -3.1 3.1 -3.1 0.15 21
DC 0 0 1.778 -0.762 0.15 21
$PAD
Sh "1" R 2 1.5 0 0 0
Dr 0 0 0
At SMD N 00888000
Ne 0 ""
Po -4 -2.25
$EndPAD
$PAD
Sh "1" R 2 1.5 0 0 0
Dr 0 0 0
At SMD N 00888000
Ne 0 ""
Po 4 -2.25
$EndPAD
$PAD
Sh "2" R 2 1.5 0 0 0
Dr 0 0 0
At SMD N 00888000
Ne 0 ""
Po -4 2.25
$EndPAD
$PAD
Sh "2" R 2 1.5 0 0 0
Dr 0 0 0
At SMD N 00888000
Ne 0 ""
Po 4 2.25
$EndPAD
$EndMODULE SMD_PushButton
$MODULE SO18E
Po 0 0 0 15 51B70643 00000000 ~~
Li SO18E
Cd Module CMS SOJ 16 pins etroit
Kw CMS SOJ
Sc 0
AR /51B5E510
Op 0 0 0
At SMD
T0 0 -0.762 1.016 1.143 0 0.127 N V 21 N "U6"
T1 0 0.762 1.016 1.143 0 0.127 N V 21 N "ULN2803"
DS 5.334 -1.778 6.604 -1.778 0.15 21
DS 6.604 -1.778 6.604 1.778 0.15 21
DS 6.604 1.778 5.334 1.778 0.15 21
DS -5.461 -1.778 5.461 -1.778 0.15 21
DS 5.461 1.778 -5.461 1.778 0.15 21
DS -5.461 1.778 -5.461 -1.778 0.15 21
DS -5.461 -0.508 -4.699 -0.508 0.15 21
DS -4.699 -0.508 -4.699 0.508 0.15 21
DS -4.699 0.508 -5.461 0.508 0.15 21
$PAD
Sh "1" R 0.508 1.143 0 0 0
Dr 0 0 0
At SMD N 00888000
Ne 0 ""
Po -4.445 2.54
$EndPAD
$PAD
Sh "2" R 0.508 1.143 0 0 0
Dr 0 0 0
At SMD N 00888000
Ne 0 ""
Po -3.175 2.54
$EndPAD
$PAD
Sh "3" R 0.508 1.143 0 0 0
Dr 0 0 0
At SMD N 00888000
Ne 0 ""
Po -1.905 2.54
$EndPAD
$PAD
Sh "4" R 0.508 1.143 0 0 0
Dr 0 0 0
At SMD N 00888000
Ne 0 ""
Po -0.635 2.54
$EndPAD
$PAD
Sh "5" R 0.508 1.143 0 0 0
Dr 0 0 0
At SMD N 00888000
Ne 0 ""
Po 0.635 2.54
$EndPAD
$PAD
Sh "6" R 0.508 1.143 0 0 0
Dr 0 0 0
At SMD N 00888000
Ne 0 ""
Po 1.905 2.54
$EndPAD
$PAD
Sh "7" R 0.508 1.143 0 0 0
Dr 0 0 0
At SMD N 00888000
Ne 0 ""
Po 3.175 2.54
$EndPAD
$PAD
Sh "8" R 0.508 1.143 0 0 0
Dr 0 0 0
At SMD N 00888000
Ne 0 ""
Po 4.445 2.54
$EndPAD
$PAD
Sh "11" R 0.508 1.143 0 0 0
Dr 0 0 0
At SMD N 00888000
Ne 0 ""
Po 4.445 -2.54
$EndPAD
$PAD
Sh "12" R 0.508 1.143 0 0 0
Dr 0 0 0
At SMD N 00888000
Ne 0 ""
Po 3.175 -2.54
$EndPAD
$PAD
Sh "13" R 0.508 1.143 0 0 0
Dr 0 0 0
At SMD N 00888000
Ne 0 ""
Po 1.905 -2.54
$EndPAD
$PAD
Sh "14" R 0.508 1.143 0 0 0
Dr 0 0 0
At SMD N 00888000
Ne 0 ""
Po 0.635 -2.54
$EndPAD
$PAD
Sh "15" R 0.508 1.143 0 0 0
Dr 0 0 0
At SMD N 00888000
Ne 0 ""
Po -0.635 -2.54
$EndPAD
$PAD
Sh "16" R 0.508 1.143 0 0 0
Dr 0 0 0
At SMD N 00888000
Ne 0 ""
Po -1.905 -2.54
$EndPAD
$PAD
Sh "17" R 0.508 1.143 0 0 0
Dr 0 0 0
At SMD N 00888000
Ne 0 ""
Po -3.175 -2.54
$EndPAD
$PAD
Sh "18" R 0.508 1.143 0 0 0
Dr 0 0 0
At SMD N 00888000
Ne 0 ""
Po -4.445 -2.54
$EndPAD
$PAD
Sh "10" R 0.508 1.143 0 0 0
Dr 0 0 0
At SMD N 00888000
Ne 0 ""
Po 5.715 -2.54
$EndPAD
$PAD
Sh "9" R 0.508 1.143 0 0 0
Dr 0 0 0
At SMD N 00888000
Ne 0 ""
Po 5.715 2.54
$EndPAD
$SHAPE3D
Na "smd/cms_so16.wrl"
Sc 0.5 0.3 0.5
Of 0 0 0
Ro 0 0 0
$EndSHAPE3D
$EndMODULE SO18E
$MODULE SO4_Bridge
Po 0 0 0 15 50F463E3 00000000 ~~
Li SO4_Bridge
Sc 0
AR 
Op 0 0 0
T0 0 0 1 1 0 0.15 N V 21 N "SO4_Bridge"
T1 6.8 -2.2 1 1 0 0.15 N V 21 N "VAL**"
T2 0 -4.2 1 1 0 0.15 N V 21 N "AC"
T2 0.9 4.3 1 1 0 0.15 N V 21 N "-"
T2 -0.8 4.3 1 1 0 0.15 N V 21 N "+"
DS -4.2 -3.2 4.2 -3.2 0.15 21
DS 4.2 -3.2 4.2 3.2 0.15 21
DS 4.2 3.2 -4.2 3.2 0.15 21
DS -4.2 3.2 -4.2 -3.3 0.15 21
$PAD
Sh "4" R 1.3 1.6 0 0 0
Dr 0 0 0
At SMD N 00888000
Ne 0 ""
Po -2.6 -4.5
$EndPAD
$PAD
Sh "2" R 1.3 1.6 0 0 0
Dr 0 0 0
At SMD N 00888000
Ne 0 ""
Po 2.5 -4.5
$EndPAD
$PAD
Sh "3" R 1.3 1.6 0 0 0
Dr 0 0 0
At SMD N 00888000
Ne 0 ""
Po -2.6 4.5
$EndPAD
$PAD
Sh "1" R 1.3 1.6 0 0 0
Dr 0 0 0
At SMD N 00888000
Ne 0 ""
Po 2.5 4.5
$EndPAD
$EndMODULE SO4_Bridge
$MODULE SOP-18
Po 0 0 0 15 5290DB38 00000000 ~~
Li SOP-18
Sc 0
AR 
Op 0 0 0
T0 0 -2.286 1 1 0 0.15 N V 21 N "SOP-18"
T1 0 2.413 1 1 0 0.15 N V 21 N "VAL**"
DS 4.445 -3.683 5.842 -3.683 0.15 21
DS 5.842 -3.683 5.842 3.81 0.15 21
DS 5.842 3.81 4.445 3.81 0.15 21
DS -5.969 0.81 -4.369 0.81 0.15 21
DS -4.369 0.81 -4.369 -0.69 0.15 21
DS -4.369 -0.69 -5.969 -0.69 0.15 21
DS -5.969 3.81 4.531 3.81 0.15 21
DS 4.531 -3.69 -5.969 -3.69 0.15 21
DS -5.969 -3.69 -5.969 3.81 0.15 21
$PAD
Sh "1" R 0.4 1.5 0 0 0
Dr 0 0 0
At SMD N 00888000
Ne 0 ""
Po -5.08 5.08
$EndPAD
$PAD
Sh "2" R 0.4 1.5 0 0 0
Dr 0 0 0
At SMD N 00888000
Ne 0 ""
Po -3.81 5.08
$EndPAD
$PAD
Sh "3" R 0.4 1.5 0 0 0
Dr 0 0 0
At SMD N 00888000
Ne 0 ""
Po -2.54 5.08
$EndPAD
$PAD
Sh "4" R 0.4 1.5 0 0 0
Dr 0 0 0
At SMD N 00888000
Ne 0 ""
Po -1.27 5.08
$EndPAD
$PAD
Sh "5" R 0.4 1.5 0 0 0
Dr 0 0 0
At SMD N 00888000
Ne 0 ""
Po 0 5.08
$EndPAD
$PAD
Sh "6" R 0.4 1.5 0 0 0
Dr 0 0 0
At SMD N 00888000
Ne 0 ""
Po 1.27 5.08
$EndPAD
$PAD
Sh "7" R 0.4 1.5 0 0 0
Dr 0 0 0
At SMD N 00888000
Ne 0 ""
Po 2.54 5.08
$EndPAD
$PAD
Sh "8" R 0.4 1.5 0 0 0
Dr 0 0 0
At SMD N 00888000
Ne 0 ""
Po 3.81 5.08
$EndPAD
$PAD
Sh "9" R 0.4 1.5 0 0 0
Dr 0 0 0
At SMD N 00888000
Ne 0 ""
Po 5.08 5.08
$EndPAD
$PAD
Sh "10" R 0.4 1.5 0 0 0
Dr 0 0 0
At SMD N 00888000
Ne 0 ""
Po 5.08 -4.953
$EndPAD
$PAD
Sh "11" R 0.4 1.5 0 0 0
Dr 0 0 0
At SMD N 00888000
Ne 0 ""
Po 3.81 -4.953
$EndPAD
$PAD
Sh "12" R 0.4 1.5 0 0 0
Dr 0 0 0
At SMD N 00888000
Ne 0 ""
Po 2.54 -4.953
$EndPAD
$PAD
Sh "13" R 0.4 1.5 0 0 0
Dr 0 0 0
At SMD N 00888000
Ne 0 ""
Po 1.27 -4.953
$EndPAD
$PAD
Sh "14" R 0.4 1.5 0 0 0
Dr 0 0 0
At SMD N 00888000
Ne 0 ""
Po 0 -4.953
$EndPAD
$PAD
Sh "15" R 0.4 1.5 0 0 0
Dr 0 0 0
At SMD N 00888000
Ne 0 ""
Po -1.27 -4.953
$EndPAD
$PAD
Sh "16" R 0.4 1.5 0 0 0
Dr 0 0 0
At SMD N 00888000
Ne 0 ""
Po -2.54 -4.953
$EndPAD
$PAD
Sh "17" R 0.4 1.5 0 0 0
Dr 0 0 0
At SMD N 00888000
Ne 0 ""
Po -3.81 -4.953
$EndPAD
$PAD
Sh "18" R 0.4 1.5 0 0 0
Dr 0 0 0
At SMD N 00888000
Ne 0 ""
Po -5.08 -4.953
$EndPAD
$EndMODULE SOP-18
$MODULE SOT223_MCP1703
Po 0 0 0 15 5290DCA5 00000000 ~~
Li SOT223_MCP1703
Cd module CMS SOT223 4 pins
Kw CMS SOT
Sc 0
AR 
Op 0 0 0
At SMD
T0 0 -0.762 1.016 1.016 0 0.2032 N V 21 N "SOT223"
T1 0 0.762 1.016 1.016 0 0.2032 N V 21 N "Val**"
DS -3.556 1.524 -3.556 4.572 0.2032 21
DS -3.556 4.572 3.556 4.572 0.2032 21
DS 3.556 4.572 3.556 1.524 0.2032 21
DS -3.556 -1.524 -3.556 -2.286 0.2032 21
DS -3.556 -2.286 -2.032 -4.572 0.2032 21
DS -2.032 -4.572 2.032 -4.572 0.2032 21
DS 2.032 -4.572 3.556 -2.286 0.2032 21
DS 3.556 -2.286 3.556 -1.524 0.2032 21
$PAD
Sh "4" R 3.6576 2.032 0 0 0
Dr 0 0 0
At SMD N 00888000
Ne 0 ""
Po 0 -3.302
$EndPAD
$PAD
Sh "GND" R 1.016 2.032 0 0 0
Dr 0 0 0
At SMD N 00888000
Ne 0 ""
Po 0 3.302
$EndPAD
$PAD
Sh "VO" R 1.016 2.032 0 0 0
Dr 0 0 0
At SMD N 00888000
Ne 0 ""
Po 2.286 3.302
$EndPAD
$PAD
Sh "VI" R 1.016 2.032 0 0 0
Dr 0 0 0
At SMD N 00888000
Ne 0 ""
Po -2.286 3.302
$EndPAD
$SHAPE3D
Na "smd/SOT223.wrl"
Sc 0.4 0.4 0.4
Of 0 0 0
Ro 0 0 0
$EndSHAPE3D
$EndMODULE SOT223_MCP1703
$MODULE TO220GDS_IRF1404
Po 0 0 0 15 51ED5316 00000000 ~~
Li TO220GDS_IRF1404
Cd Transistor VMOS Irf530, TO220
Kw TR TO220 DEV
Sc 0
AR /51DFD43B
Op 0 0 0
T0 6.985 0 1.524 1.016 900 0.2032 N V 21 N "Q2"
T1 10.795 0 1.524 1.016 900 0.2032 N V 21 N "IRF1404"
DS 0 -2.54 5.08 -2.54 0.3048 21
DS 0 0 5.08 0 0.3048 21
DS 0 2.54 5.08 2.54 0.3048 21
DS 5.08 -5.08 20.32 -5.08 0.3048 21
DS 20.32 -5.08 20.32 5.08 0.3048 21
DS 20.32 5.08 5.08 5.08 0.3048 21
DS 5.08 5.08 5.08 -5.08 0.3048 21
DS 12.7 5.08 12.7 -5.08 0.3048 21
$PAD
Sh "D" R 8.89 8.89 0 0 0
Dr 3.048 0 0
At STD N 00F0FFFF
Ne 0 ""
Po 16.51 0
$EndPAD
$PAD
Sh "G" C 1.778 1.778 0 0 0
Dr 1.143 0 0
At STD N 00E0FFFF
Ne 0 ""
Po 0 -2.54
$EndPAD
$PAD
Sh "D" C 1.778 1.778 0 0 0
Dr 1.143 0 0
At STD N 00E0FFFF
Ne 0 ""
Po 0 0
$EndPAD
$PAD
Sh "S" R 1.778 1.778 0 0 0
Dr 1.143 0 0
At STD N 00E0FFFF
Ne 0 ""
Po 0 2.54
$EndPAD
$SHAPE3D
Na "discret/to220_horiz.wrl"
Sc 1 1 1
Of 0 0 0
Ro 0 0 0
$EndSHAPE3D
$EndMODULE TO220GDS_IRF1404
$MODULE TO220_VERT_1404
Po 0 0 0 15 50A61728 00000000 ~~
Li TO220_VERT_1404
Cd Regulateur TO220 serie LM78xx
Kw TR TO220
Sc 0
AR 
Op 0 0 0
T0 -3.175 0 1.524 1.016 900 0.2032 N V 21 N "TO220_VERT_IRF1404"
T1 0.635 -6.35 1.524 1.016 0 0.2032 N V 21 N "VAL**"
DS 1.905 -5.08 2.54 -5.08 0.381 21
DS 2.54 -5.08 2.54 5.08 0.381 21
DS 2.54 5.08 1.905 5.08 0.381 21
DS -1.905 -5.08 1.905 -5.08 0.381 21
DS 1.905 -5.08 1.905 5.08 0.381 21
DS 1.905 5.08 -1.905 5.08 0.381 21
DS -1.905 5.08 -1.905 -5.08 0.381 21
$PAD
Sh "G" C 1.778 1.778 0 0 0
Dr 1.016 0 0
At STD N 00E0FFFF
Ne 0 ""
Po 0 -2.54
$EndPAD
$PAD
Sh "D" C 1.778 1.778 0 0 0
Dr 1.016 0 0
At STD N 00E0FFFF
Ne 0 ""
Po 0 0
$EndPAD
$PAD
Sh "S" R 1.778 1.778 0 0 0
Dr 1.016 0 0
At STD N 00E0FFFF
Ne 0 ""
Po 0 2.54
$EndPAD
$EndMODULE TO220_VERT_1404
$MODULE led_cree_mc-e
Po 0 0 0 15 5069AF1D 00000000 ~~
Li led_cree_mc-e
Sc 0
AR 
Op 0 0 0
T0 7.62 6.35 1.524 1.524 0 0.3048 N V 21 N "led_cree_mc-e"
T1 -1.27 -6.35 1.524 1.524 0 0.3048 N V 21 N "VAL**"
T2 2.49936 2.99974 1.524 1.524 0 0.3048 N V 21 N "w"
T2 2.54 1.27 1.524 1.524 0 0.3048 N V 21 N "b"
T2 2.54 -1.27 1.524 1.524 0 0.3048 N V 21 N "g"
T2 2.49936 -2.99974 1.524 1.524 0 0.3048 N V 21 N "r"
DS 2.99974 -3.50012 -3.74904 -3.50012 0.381 21
DS -3.74904 -3.50012 -3.50012 -3.2512 0.381 21
DS 3.74904 -2.75082 3.74904 0 0.381 21
DS 2.99974 -3.50012 3.74904 -2.75082 0.381 21
DS -3.74904 -3.50012 -3.74904 3.50012 0.381 21
DS -3.74904 3.50012 3.74904 3.50012 0.381 21
DS 3.74904 3.50012 3.74904 0 0.381 21
DS -3.74904 -3.50012 -3.74904 3.2512 0.381 21
$PAD
Sh "4" R 1.00076 0.7493 0 0 0
Dr 0 0 0
At SMD N 00888000
Ne 0 ""
Po 4.24942 2.30124
$EndPAD
$PAD
Sh "3" R 1.00076 0.7493 0 0 0
Dr 0 0 0
At SMD N 00888000
Ne 0 ""
Po 4.24942 0.78994
$EndPAD
$PAD
Sh "2" R 1.00076 0.7493 0 0 0
Dr 0 0 0
At SMD N 00888000
Ne 0 ""
Po 4.25958 -0.70104
$EndPAD
$PAD
Sh "1" R 1.00076 0.7493 0 0 0
Dr 0 0 0
At SMD N 00888000
Ne 0 ""
Po 4.25958 -2.19964
$EndPAD
$PAD
Sh "5" R 1.00076 0.7493 0 0 0
Dr 0 0 0
At SMD N 00888000
Ne 0 ""
Po -4.24942 2.30124
$EndPAD
$PAD
Sh "6" R 1.00076 0.7493 0 0 0
Dr 0 0 0
At SMD N 00888000
Ne 0 ""
Po -4.23926 0.8001
$EndPAD
$PAD
Sh "7" R 1.00076 0.7493 0 0 0
Dr 0 0 0
At SMD N 00888000
Ne 0 ""
Po -4.23926 -0.70104
$EndPAD
$PAD
Sh "8" R 1.00076 0.7493 0 0 0
Dr 0 0 0
At SMD N 00888000
Ne 0 ""
Po -4.24942 -2.19964
$EndPAD
$PAD
Sh "9" R 4.0005 5.99948 0 0 0
Dr 0 0 0
At SMD N 00888000
Ne 0 ""
Po 0 0
$EndPAD
$EndMODULE led_cree_mc-e
$MODULE slider_stolen
Po 0 0 0 15 4FFB26A7 00000000 ~~
Li slider_stolen
Sc 0
AR 
Op 0 0 0
T0 3.8989 2.4003 1.524 1.524 0 0.3048 N V 21 N "slider_stolen"
T1 -7.62 -13.97 1.524 1.524 0 0.3048 N V 21 N "VAL**"
DS 5.4991 -4.0005 5.4991 0 0.381 21
DS 5.4991 0 -5.4991 0 0.381 21
DS -5.4991 0 -5.4991 -4.0005 0.381 21
DS -5.4991 -4.0005 0.09906 -4.0005 0.381 21
DS 0.09906 -4.0005 5.6007 -4.0005 0.381 21
DS 4.0005 22.60092 -3.8989 22.69998 0.381 21
DS -3.8989 22.69998 -4.0005 22.69998 0.381 21
DS 4.0005 0 4.0005 -22.69998 0.381 21
DS 4.0005 -22.69998 -3.8989 -22.69998 0.381 21
DS -3.8989 -22.69998 -4.0005 -22.69998 0.381 21
DS -4.0005 -22.69998 -4.0005 22.69998 0.381 21
DS 4.0005 22.69998 4.0005 -0.09906 0.381 21
$PAD
Sh "3" C 1.82372 1.82372 0 0 0
Dr 1.19888 0 0
At STD N 00E0FFFF
Ne 0 ""
Po -1.69926 -17.399
$EndPAD
$PAD
Sh "2" C 1.82372 1.82372 0 0 0
Dr 1.19888 0 0
At STD N 00E0FFFF
Ne 0 ""
Po 1.69926 -17.399
$EndPAD
$PAD
Sh "1" C 1.82372 1.82372 0 0 0
Dr 1.19888 0 0
At STD N 00E0FFFF
Ne 0 ""
Po -1.69926 17.399
$EndPAD
$EndMODULE slider_stolen
$MODULE switch_ALPS
Po 0 0 0 15 4FFB2384 00000000 ~~
Li switch_ALPS
Sc 0
AR 
Op 0 0 0
T0 2.90068 4.89966 1.524 1.524 0 0.3048 N V 21 N "switch_ALPS"
T1 -0.09906 0.20066 1.524 1.524 0 0.3048 N V 21 N "VAL**"
DS 4.39928 0 4.39928 3.29946 0.381 21
DS 4.39928 3.29946 -4.39928 3.29946 0.381 21
DS -4.39928 -3.29946 -4.39928 3.29946 0.381 21
DS 4.39928 -3.29946 -4.39928 -3.29946 0.381 21
DS 4.39928 0.0508 4.39928 -3.2512 0.381 21
$PAD
Sh "5" C 1.524 1.524 0 0 0
Dr 0.8128 0 0
At STD N 00E0FFFF
Ne 0 ""
Po 0 2.54
$EndPAD
$PAD
Sh "6" C 1.524 1.524 0 0 0
Dr 0.8128 0 0
At STD N 00E0FFFF
Ne 0 ""
Po 2.54 2.54
$EndPAD
$PAD
Sh "4" C 1.524 1.524 0 0 0
Dr 0.8128 0 0
At STD N 00E0FFFF
Ne 0 ""
Po -2.54 2.54
$EndPAD
$PAD
Sh "1" C 1.524 1.524 0 0 0
Dr 0.8128 0 0
At STD N 00E0FFFF
Ne 0 ""
Po -2.54 -2.54
$EndPAD
$PAD
Sh "2" C 1.524 1.524 0 0 0
Dr 0.8128 0 0
At STD N 00E0FFFF
Ne 0 ""
Po 0 -2.54
$EndPAD
$PAD
Sh "3" C 1.524 1.524 0 0 0
Dr 0.8128 0 0
At STD N 00E0FFFF
Ne 0 ""
Po 2.54 -2.54
$EndPAD
$EndMODULE switch_ALPS
$EndLIBRARY
