(module Capacitors_Felix:C_SMD_Panasonic_FK-H13_Handsoldering (layer F.Cu) (tedit 56F3F4D4)
  (fp_text reference C** (at -8.1 4.45 90) (layer F.SilkS)
    (effects (font (thickness 0.3048)))
  )
  (fp_text value VAL** (at 8.15 2.45 90) (layer F.SilkS)
    (effects (font (thickness 0.3048)))
  )
  (fp_line (start 6.65 6.7) (end 6.65 -3.3) (layer F.SilkS) (width 0.15))
  (fp_line (start -6.85 -3.3) (end -6.85 6.7) (layer F.SilkS) (width 0.15))
  (fp_line (start -3.35 -6.8) (end 3.15 -6.8) (layer F.SilkS) (width 0.15))
  (fp_line (start 3.15 -6.8) (end 6.65 -3.3) (layer F.SilkS) (width 0.15))
  (fp_line (start -6.85 -3.3) (end -3.35 -6.8) (layer F.SilkS) (width 0.15))
  (fp_line (start -6.85 6.7) (end 6.65 6.7) (layer F.SilkS) (width 0.15))
  (fp_text user + (at -1.85 -8.05) (layer F.SilkS)
    (effects (font (thickness 0.3048)))
  )
  (pad 1 smd rect (at 0 -5.55) (size 2.5 7) (layers F.Cu F.Paste F.Mask))
  (pad 2 smd rect (at 0 5.55) (size 2.5 7) (layers F.Cu F.Paste F.Mask))
)
