(module Capacitors_Elko_ThroughHole:Elko_vert_11.5x8mm_RM3.5 (layer F.Cu) (tedit 573DDE86)
  (descr "Electrolytic Capacitor, vertical, diameter 8mm, RM 3,5mm, radial,")
  (tags "Electrolytic Capacitor, vertical, diameter 8mm, radial, RM 3,5mm, Elko, Electrolytkondensator, Kondensator gepolt, Durchmesser 8mm,")
  (fp_text reference C5 (at 1.905 -5.08) (layer F.SilkS)
    (effects (font (size 1 1) (thickness 0.15)))
  )
  (fp_text value 100u35V (at 2.54 6.35) (layer F.Fab)
    (effects (font (size 1 1) (thickness 0.15)))
  )
  (fp_line (start 5.9 0.45) (end 5.95 -0.4) (layer F.SilkS) (width 0.15))
  (fp_line (start 6.05 0.45) (end 5.9 0.45) (layer F.SilkS) (width 0.15))
  (fp_line (start 6.05 -0.5) (end 6.05 0.45) (layer F.SilkS) (width 0.15))
  (fp_line (start 5.9 -0.5) (end 6.05 -0.5) (layer F.SilkS) (width 0.15))
  (fp_line (start 0.10414 -2.02438) (end 1.1303 -2.02438) (layer F.SilkS) (width 0.15))
  (fp_line (start 0.62992 -2.57556) (end 0.62992 -1.524) (layer F.SilkS) (width 0.15))
  (fp_circle (center 1.905 0) (end 5.9055 0) (layer F.SilkS) (width 0.15))
  (pad 2 thru_hole circle (at 3.81 0) (size 1.50114 1.50114) (drill 0.8001) (layers *.Cu *.Mask F.SilkS))
  (pad 1 thru_hole circle (at 0 0) (size 1.50114 1.50114) (drill 0.8001) (layers *.Cu *.Mask F.SilkS))
  (model Capacitors_Elko_ThroughHole.3dshapes/Elko_vert_11.5x8mm_RM3.5.wrl
    (at (xyz 0 0 0))
    (scale (xyz 1 1 1))
    (rotate (xyz 0 0 0))
  )
)
