(module PHOENIX_PT2-5-12_5-0-H-1935873 (layer F.Cu) (tedit 573B06EB)
  (fp_text reference REF** (at -0.5 -5.5) (layer F.SilkS)
    (effects (font (size 1 1) (thickness 0.15)))
  )
  (fp_text value PHOENIX_PT2-5-12_5-0-H-1935873 (at 12.5 -3) (layer F.Fab)
    (effects (font (size 1 1) (thickness 0.15)))
  )
  (fp_line (start 17.5 4.5) (end 17.5 -4.5) (layer F.SilkS) (width 0.15))
  (fp_line (start 6 3) (end 6.5 4.5) (layer F.SilkS) (width 0.15))
  (fp_line (start 4 3) (end 6 3) (layer F.SilkS) (width 0.15))
  (fp_line (start 3.5 4.5) (end 4 3) (layer F.SilkS) (width 0.15))
  (fp_line (start -1.5 4.5) (end -1 3) (layer F.SilkS) (width 0.15))
  (fp_line (start -1 3) (end 1 3) (layer F.SilkS) (width 0.15))
  (fp_line (start 1 3) (end 1.5 4.5) (layer F.SilkS) (width 0.15))
  (fp_line (start 8.5 4.5) (end 9 3) (layer F.SilkS) (width 0.15))
  (fp_line (start 9 3) (end 11 3) (layer F.SilkS) (width 0.15))
  (fp_line (start 11 3) (end 11.5 4.5) (layer F.SilkS) (width 0.15))
  (fp_line (start 16 3) (end 16.5 4.5) (layer F.SilkS) (width 0.15))
  (fp_line (start 14 3) (end 16 3) (layer F.SilkS) (width 0.15))
  (fp_line (start 13.5 4.5) (end 14 3) (layer F.SilkS) (width 0.15))
  (fp_line (start -2.5 4.5) (end -2.5 4) (layer F.SilkS) (width 0.15))
  (fp_line (start -2.5 4.5) (end 17.5 4.5) (layer F.SilkS) (width 0.15))
  (fp_line (start -2.5 0) (end -2.5 -4.5) (layer F.SilkS) (width 0.15))
  (fp_line (start -2.5 -4.5) (end 0 -4.5) (layer F.SilkS) (width 0.15))
  (fp_line (start 0 -4.5) (end 17.5 -4.5) (layer F.SilkS) (width 0.15))
  (fp_line (start -2.5 4) (end -2.5 0) (layer F.SilkS) (width 0.15))
  (pad 1 thru_hole circle (at 0 0) (size 2.524 2.524) (drill 1.3) (layers *.Cu *.Mask F.SilkS))
  (pad 2 thru_hole circle (at 5 0) (size 2.524 2.524) (drill 1.3) (layers *.Cu *.Mask F.SilkS))
  (pad 3 thru_hole circle (at 10 0) (size 2.524 2.524) (drill 1.3) (layers *.Cu *.Mask F.SilkS))
  (pad 4 thru_hole circle (at 15 0) (size 2.524 2.524) (drill 1.3) (layers *.Cu *.Mask F.SilkS))
)
