(module Housings_SOT-89:SOT89-3_Housing (layer F.Cu) (tedit 56EA9951)
  (descr "SOT89-3, Housing,")
  (tags "SOT89-3, Housing,")
  (attr smd)
  (fp_text reference REF** (at -0.09906 -4.24942) (layer F.SilkS)
    (effects (font (size 1 1) (thickness 0.15)))
  )
  (fp_text value TS78L05_SOT89-3 (at -0.20066 4.59994) (layer F.Fab)
    (effects (font (size 1 1) (thickness 0.15)))
  )
  (fp_line (start -1.89992 0.20066) (end -1.651 -0.09906) (layer F.SilkS) (width 0.15))
  (fp_line (start -1.651 -0.09906) (end -1.5494 -0.24892) (layer F.SilkS) (width 0.15))
  (fp_line (start -1.5494 -0.24892) (end -1.5494 0.59944) (layer F.SilkS) (width 0.15))
  (fp_line (start -2.25044 -1.30048) (end -2.25044 0.50038) (layer F.SilkS) (width 0.15))
  (fp_line (start -2.25044 -1.30048) (end -1.6002 -1.30048) (layer F.SilkS) (width 0.15))
  (fp_line (start 2.25044 -1.30048) (end 2.25044 0.50038) (layer F.SilkS) (width 0.15))
  (fp_line (start 2.25044 -1.30048) (end 1.6002 -1.30048) (layer F.SilkS) (width 0.15))
  (pad VO smd rect (at -1.50114 1.85166) (size 1.00076 1.50114) (layers F.Cu F.Paste F.Mask))
  (pad GND smd rect (at 0 1.85166) (size 1.00076 1.50114) (layers F.Cu F.Paste F.Mask))
  (pad VI smd rect (at 1.50114 1.85166) (size 1.00076 1.50114) (layers F.Cu F.Paste F.Mask))
  (pad GND smd rect (at 0 -1.09982) (size 1.99898 2.99974) (layers F.Cu F.Paste F.Mask))
  (pad GND smd trapezoid (at 0 0.7493 180) (size 1.50114 0.7493) (rect_delta 0 0.50038 ) (layers F.Cu F.Paste F.Mask))
  (model Housings_SOT-89.3dshapes/SOT89-3_Housing.wrl
    (at (xyz 0 0 0))
    (scale (xyz 0.3937 0.3937 0.3937))
    (rotate (xyz 0 0 0))
  )
)
