(module Felix:PIS4728_Inductance (layer F.Cu) (tedit 56EAC8CC)
  (fp_text reference Inductor_SMD_Fastron_PIS4728 (at -7 -5.8 90) (layer F.SilkS)
    (effects (font (size 1 1) (thickness 0.15)))
  )
  (fp_text value VAL** (at 7.25 -1.8 90) (layer F.SilkS)
    (effects (font (size 1 1) (thickness 0.15)))
  )
  (fp_line (start -6.1 -11.9) (end 6.1 -11.9) (layer F.SilkS) (width 0.15))
  (fp_line (start 6.1 -11.9) (end 6.1 0.3) (layer F.SilkS) (width 0.15))
  (fp_line (start 6.1 0.3) (end -6 0.3) (layer F.SilkS) (width 0.15))
  (fp_line (start -6 0.3) (end -6.1 0.3) (layer F.SilkS) (width 0.15))
  (fp_line (start -6.1 0.3) (end -6.1 -11.9) (layer F.SilkS) (width 0.15))
  (pad 1 smd rect (at 0 0) (size 5.4 2.9) (layers F.Cu F.Paste F.Mask))
  (pad 2 smd rect (at 0 -11.6) (size 5.4 2.9) (layers F.Cu F.Paste F.Mask))
)
