(module Felix:Inductance_SMD_Fastron_1008F-100K-01_2.8x2.9 (layer F.Cu) (tedit 54915384)
  (fp_text reference I (at -1.2 3.1) (layer F.SilkS) hide
    (effects (font (size 1 1) (thickness 0.15)))
  )
  (fp_text value VAL** (at 2.4 -0.1 90) (layer F.SilkS)
    (effects (font (size 1 1) (thickness 0.15)))
  )
  (fp_line (start 0 1.5) (end -1.4 1.5) (layer F.SilkS) (width 0.15))
  (fp_line (start -1.4 1.5) (end -1.4 -1.5) (layer F.SilkS) (width 0.15))
  (fp_line (start -1.4 -1.5) (end 1.4 -1.5) (layer F.SilkS) (width 0.15))
  (fp_line (start 1.4 -1.5) (end 1.4 1.5) (layer F.SilkS) (width 0.15))
  (fp_line (start 0 1.5) (end 1.4 1.5) (layer F.SilkS) (width 0.15))
  (pad 1 smd rect (at 0 -1.2) (size 2.5 1) (layers F.Cu F.Paste F.Mask))
  (pad 2 smd rect (at 0 1.2) (size 2.5 1) (layers F.Cu F.Paste F.Mask))
)
